#anbennar - used for the missions button
missions_yes = {
	reason = {
		tooltip_desc = "missions_yes_desc"
		tooltip_reason = ""
		weight = 100
		trigger = {
			OR = {
				tag = Z26 #Adshaw
				tag = G26 #Amacimst
				tag = G52 #Ameion
				tag = G62 #Amgremos
				tag = A38 #Anbenncost
				tag = G59 #Anisikheion
				tag = Y04 #Anjiang
				tag = H01 #Arakeprun
				tag = A72 #Arannen
				tag = A46 #Arbaran
				tag = G51 #Arpedifer
				tag = G35 #Arverynn
				tag = A60 #Asheniande
				tag = Y01 #Azjakuma
				tag = F34 #Azka-Evran
				tag = U20 #Azka-Sur
				tag = Y86 #Azkare
				tag = Y85 #Balrijin
				tag = A12 #Beepeck
				tag = Y15 #Beikdugang
				tag = A39 #Bennon
				tag = Y09 #Bianfang
				tag = Y51 #Bim Lau
				tag = F21 #Birzartanses
				tag = Z08 #Bjarnrik
				tag = G01 #Boek
				tag = G33 #Bosancovac
				tag = F39 #Bulwar 
				tag = A29 #Busilar
				tag = H74 #Chaingrasper
				tag = A59 #Corvuria
				tag = B55 #Counts League
				tag = F22 #Dartaxagerdim
				tag = G46 #Degakheion
				tag = A02 #Deranne
				tag = G56 #Deyeion
				tag = R51 #Dhenijanraj
				tag = A47 #Eborthil
				tag = A15 #Eilisin
				tag = H04 #Elchos
				tag = U05 #Elizna
				tag = G53 #Empkeios
				tag = G55 #Eneion
				tag = A93 #Estallen
				tag = Y20 #Feiten
				tag = A13 #Gawed
				tag = F26 #Gelkalis
				tag = A81 #Giberd
				tag = A17 #Great Ording
				tag = H82 #Greedy Grin
				tag = Z18 #Frozenmaw/Grombar
				tag = Y07 #Guhe
				tag = F27 #Ayarallen
				tag = Y66 #Hon Sai
				tag = A32 #Ibevar
				tag = F37 #Irrliam
				tag = A45 #Istralore
				tag = F46 #Jaddari
				tag = Y13 #Jiangdu
				tag = Y16 #Jiantsiang
				tag = G48 #Kherka
				tag = U01 #Kheterata
				tag = U02 #Nirat
				tag = A35 #Konwell 
				tag = I02 #Krakdhumvror
				tag = G49 #Lokemeion
				tag = A01 #Lorent
				tag = Y58 #Lot Dekkhang
				tag = I90 #Magharma
				tag = A85 #Magisterium
				tag = G32 #Malacnar
				tag = B36 #Marrhold
				tag = A31 #Moonhaven
				tag = H84 #Mountainshark
				tag = F50 #Mulen
				tag = A22 #Neckliffe
				tag = A06 #Nimscodd
				tag = Y91 #Nuugdan Tsarai
				tag = Z17 #Obrtrol
				tag = G47 #Oktikheion
				tag = A77 #Orda Aldresia
				tag = G50 #Ormam
				tag = U16 #Ourdia
				tag = U17 #Crathanor
				tag = H79 #Ovdal Kanzad
				tag = H77 #Ovdal Lodhum
				tag = A11 #Pearlsedge
				tag = H08 #Pelomar
				#tag = G21 #Pomvasonn
				tag = R52 #Rabhidaraj
				tag = H75 #Railskulker
				tag = R07 #Rajnadhaga
				tag = U18 #Re'Uyel
				tag = A05 #Reveria
				tag = H91 #Roadwarrior
				tag = G67 #Royakottar
				tag = A18 #Rubenaire
				tag = F25 #Sareyand
				tag = R21 #Sarisung
				tag = H78 #Seghdir
				tag = A90 #Seinathil
				tag = H72 #Shattered Crown
				tag = F48 #Siadan
				tag = A73 #Silverforge
				tag = H89 #Snotfinger
				tag = H90 #Spiderwretch
				tag = A48 #Sugamber
				tag = G40 #Tehanek
				tag = A62 #Telgeir
				tag = R62 #The Command
				tag = H87 #Thieving Arrow
				tag = R08 #Tilthagar
				tag = F28 #Tluukt
				tag = A57 #Toarnen
				tag = H85 #Truedagger
				tag = Z15 #Urviksten
				tag = A99 #Varaine 
				tag = F42 #Varahmar
				tag = A21 #Venail
				tag = F47 #Verkal Gulan
				tag = Y63 #Verkal Ozovar
				tag = A33 #Verne
				tag = A23 #Vertesk
				tag = A04 #Wesdam
				tag = A30 #Wex
				tag = A16 #Wineport
				tag = Y06 #Yangcheng
				tag = Y08 #Yanzhong
				tag = Y10 #Yingzhen
				tag = Y26 #Yinquan
				tag = Y25 #Zongji
				tag = R41 #Varamhar & co
				tag = R43 #
				tag = R45 #
				tag = R50 #
				tag = R77 #
				tag = J35 #Iltklerd
				tag = J36 #Kvakolba
				tag = J37 #Olkhajukh
				tag = J38 #Remlygenjrot
				tag = J39 #Achtejardon
				tag = J40 #Garsvulshim
				tag = J41 #Bronzegut
				tag = J42 #Grey Fist
				tag = J43 #Ironclaw
				tag = J44 #Skull Gnasher
				tag = J45 #Trunk Basher
				tag = J46 #Frosthide
				tag = J47 #Skurkokli
				tag = H88 #Ambersniffer
				tag = H92 #Poisoned Rock
				tag = H93 #Dirtwater
				tag = F31 #Eduz-Vacyn
				tag = Y72 #Chien Binhrung
				tag = G58 #Keyolion
				tag = G60 #Eltikan
				tag = G27 #Brelar
				tag = F43 #Zansap
				tag = Y65 #Arawkelin
				tag = H16 #Gemradcurt
				tag = G38 #Vels Fadhecai
				tag = J32 #Mire Maw
				tag = L01 #Kuiika
				tag = U07 #Viakkoc
				tag = A87 #Saloren
				tag = G81 #Sthanan ith Vussam
				tag = I41 #Sapchopper
				tag = I43 #Silentblade
				tag = Y59 #Thirabnir
				tag = Y60 #Lo Ngoen
				tag = Y62 #Khao Elnak
				tag = H73 #Skewered Drake
				tag = A40 #Exwes
				tag = F69 #Irkorzik
				tag = H76 #Arg-Ordstun
				tag = L03 #Isagumze
				tag = F35 #Azkabar
				tag = G84 #Vels Bacar
				tag = G54 #Besolaki
				tag = F23 #Ovdal Tungr
				tag = J75 #Rakkabuttai
				tag = G15 #Sel'Parura
				tag = G16 #Ae'n Saldyano
				tag = G17 #Xoti'Guao
				tag = G18 #Kamaraka
				tag = G19 #Ingani
				tag = F30 #Kumarkand
				tag = R38 #Bhuvauri
				tag = R61 #Pasiragha
				tag = L09 #Zuvavim
				tag = Z19 #Broken Jaw
				tag = U08 #Ekha
				tag = L08 #Kulugiash
				tag = G64 #Larankar
				tag = J73 #Zaernmaera

				AND = {
					capital_scope = {
						OR = {
							region = forlorn_vale_region
							superregion = escann_superregion
						}
					}
					is_adventurer = yes
				}
				AND = {
					culture_group = dwarven
					has_reform = dwarovar_adventurer_reform
				}
				primary_culture = caamas
				primary_culture = ghankedhen
				primary_culture = peitar
				primary_culture = selphereg
				primary_culture = snecboth
				primary_culture = tuathak
				primary_culture = exodus_goblin
				primary_culture = raghamidesh
				culture_group = centaur
				culture_group = triunic
				religion = dotimism
				AND = {
					culture_group = goblin
					NOT = {
						tag = U12
					}
					capital_scope = {
						OR = {
							region = forlorn_vale_region
							superregion = escann_superregion
							superregion = gerudia_superregion
						}
					}
				}
				AND = {
					culture = ghavaanaj
					NOT = { tag = Y31 }
					government = monarchy
				}
				AND = {
					culture_group = orcish
					capital_scope = {
						OR = {
							region = forlorn_vale_region
							superregion = escann_superregion
							superregion = deepwoods_superregion
						}
					}
				}
				primary_culture = wood_elf
				has_reform = wulin
				has_reform = xiaken
				AND = {
					culture_group = kobold
					capital_scope = { superregion = western_cannor_superregion }
				}
				is_vyzemby_primary_culture = yes
			}
		}
	}
}

missions_no = {
	reason = {
		tooltip_desc = "missions_no_desc"
		tooltip_reason = ""
		weight = 1
		trigger = {
			always = yes
		}
	}
}
