song = {
	name = "maintheme"
	
	chance = {
		modifier = {
			factor = 0			#only played in mainscreen.
		}		
	}
}

song = {
	name = "dawn_of_an_empire"

	chance = {
		factor = 1.1
	}
}

song = {
	name = "in_the_wake"
	
	chance = {
		modifier = {
			factor = 0
			is_at_war = no
		}
		modifier = {
			factor = 1.5
			is_evil = yes
		}
		modifier = {
			factor = 1.5
			has_country_modifier = monstrous_nation
		}		
	}
}

song = {
	name = "remnant_awakening"

	chance = {
		modifier = {
			factor = 2
			has_country_modifier = dwarven_administration
		}	

		modifier = {
			factor = 0
			is_at_war = yes
		}
	}
}
song = {
	name = "dusk_of_an_empire"

	chance = {
		modifier = {
			factor = 0
			is_at_war = yes
		}
	}
}

song = {
    name = "deioderan"
    
    chance = {
        modifier = {
            factor = 2
            is_at_war = yes
            OR = {
                religion = jadd
                capital_scope = { superregion = bulwar_superregion }
            }
        }    
        
        modifier = {
            factor = 0
            is_at_war = no
        }
        
        modifier = {
            factor = 0
            NOT = { capital_scope = { superregion = bulwar_superregion } }
            NOT = { religion = the_jadd }
        }
    }
}

song = {
	name = "sportless_hunt"
	
	chance = {
		modifier = {
			factor = 2
			has_estate = estate_vampires
		}
	}
}

song = {
	name = "strife_and_perseverance"
	
	chance = {
		modifier = {
            factor = 0
            NOT = {
				is_at_war = yes
			}
        }
		
		modifier = {
			factor = 2
			is_at_war = yes
		}
	}
}

song = {
	name = "the_unrelenting_wave"
	
	chance = {
		modifier = {
            factor = 0
            NOT = { any_owned_province = { continent = asia NOT = { superregion = forbidden_lands_superregion } } }
        }
		modifier = {
			factor = 3
			has_global_flag = rending_active
		}
		modifier = {
			factor = 2
			has_country_flag = rending_started_country
		}		
	}
}

song = {
	name = "adventurers_wanted"
	
	chance = {
		modifier = {
			factor = 1.5
			is_adventurer = yes
		}
		modifier = {
			factor = 1.5
			is_aelantiri_spawnable = yes
		}		
	}
}

song = {
	name = "last_lights_of_tuwad_dhumankhon"
	
	chance = {
		modifier = {
			factor = 1.5
			capital_scope = {
				OR = {
					superregion = rahen_superregion
					continent = serpentspine
				}
			}
		}
		modifier = {
			factor = 1.5
			culture_group = dwarven
		}
	}
}

song = {
	name = "memories_of_aelantir"

	chance = {
		modifier = {
			factor = 1.5
			capital_scope = {
				OR = {
					continent = north_america
					continent = south_america
				}
			}
		}
	}
	chance = {
		modifier = {
			factor = 1.5
			culture_is_ruinborn = yes
		}
	}
}

song = {
	name = "the_landing"
	
	chance = {
		modifier = {
			factor = 2
			capital_scope = {
				superregion = western_cannor_superregion
			}
		}
	}
}

song = {
	name = "the_kenu_ike"
	
	chance = {
		modifier = {
            factor = 0
            NOT = { any_owned_province = { continent = asia NOT = { superregion = forbidden_lands_superregion } } }
        }
		modifier = {
			factor = 2
			is_at_war = yes
		}
		modifier = {
			factor = 4
			is_in_war = {
				participants = R62
			}
		}
		modifier = {
			factor = 0.4
			is_tag = R62
		}
			
	}
}