
ekha_missions_1 = {
	slot = 1
	generic = no
	ai = yes
	has_country_shield = yes
	potential = { tag = U08 }
	
	U08_ekha_the_chase = {
		icon = mission_torch_fire
		required_missions = { U08_ekha_silver_for_gnolls }
		position = 2
		
		provinces_to_highlight = {
			OR = {
				AND = {
					province_id = 390
					culture = seascourge_gnoll 
					NOT = { infantry_in_province = ROOT }
				}
				AND = {
					province_id = 406
					culture = seascourge_gnoll 
					NOT = { infantry_in_province = ROOT }
				}
				AND = {
					province_id = 392
					culture = seascourge_gnoll 
					NOT = { infantry_in_province = ROOT }
				}
				AND = {
					province_id = 393
					culture = seascourge_gnoll 
					NOT = { infantry_in_province = ROOT }
				}
				AND = {
					province_id = 401
					culture = seascourge_gnoll 
					NOT = { infantry_in_province = ROOT }
				}
				AND = {
					province_id = 395
					culture = seascourge_gnoll 
					NOT = { infantry_in_province = ROOT }
				}
				AND = {
					province_id = 396
					culture = seascourge_gnoll 
					NOT = { infantry_in_province = ROOT }
				}
				AND = {
					province_id = 398
					culture = seascourge_gnoll 
					NOT = { infantry_in_province = ROOT }
				}
				AND = {
					province_id = 385
					culture = seascourge_gnoll 
					NOT = { infantry_in_province = ROOT }
				}
			}
		}
		
		trigger = {
		custom_trigger_tooltip = {
				tooltip = ekha_the_chase_tooltip
			390 = { 
				OR = {
					NOT = { culture = seascourge_gnoll }
					infantry_in_province = ROOT
				}
			}
			406 = { 
				OR = {
					NOT = { culture = seascourge_gnoll }
					infantry_in_province = ROOT
				}
			}
			393 = { 
				OR = {
					NOT = { culture = seascourge_gnoll }
					infantry_in_province = ROOT
				}
			}
			392 = { 
				OR = {
					NOT = { culture = seascourge_gnoll }
					infantry_in_province = ROOT
				}
			}
			401 = { 
				OR = {
					NOT = { culture = seascourge_gnoll }
					infantry_in_province = ROOT
				}
			}
			395 = { 
				OR = {
					NOT = { culture = seascourge_gnoll }
					infantry_in_province = ROOT
				}
			}
			396 = { 
				OR = {
					NOT = { culture = seascourge_gnoll }
					infantry_in_province = ROOT
				}
			}
			398 = { 
				OR = {
					NOT = { culture = seascourge_gnoll }
					infantry_in_province = ROOT
				}
			}
			385 = { 
				OR = {
					NOT = { culture = seascourge_gnoll }
					infantry_in_province = ROOT
				}
			}
		}
			OR = {
				has_country_modifier = racial_pop_gnollish_expulsion
				has_country_modifier = racial_pop_gnollish_purge
			}
			OR = {
				advisor = inquisitor
				AND = {
					adm_power = 50 
					employed_advisor = {
						category = ADM
					}
				}
			}
			OR = {
				advisor = army_reformer
				AND = {
					mil_power = 50 
					employed_advisor = {
						category = MIL
					}
				}
			}
		}

		effect = {
			country_event = { id = flavour_ekha.6 }
			custom_tooltip = ekha_the_chase_tooltip_1
			set_country_flag = U08_cleared_coast
			if = {
				limit = {
					NOT = {
						advisor = inquisitor
					}
				}
				add_adm_power = -50
			}
			if = {
				limit = {
					NOT = {
						advisor = army_reformer
					}
				}
				add_mil_power = -50
			}
		}
	}	
}

ekha_missions_2 = {
	slot = 2
	generic = no
	ai = yes
	has_country_shield = yes
	potential = { tag = U08 }
	
	U08_ekha_amend_the_ancient_laws = {
		icon = mission_diplomacy_missive
		required_missions = { U08_ekha_silver_for_gnolls }
		position = 2
		
		trigger = {
			government_reform_progress = 75
			employed_advisor = {
				category = ADM
			}
			employed_advisor = {
				category = DIP
			}
			employed_advisor = {
				category = MIL
			}
		}

		effect = {
			change_government_reform_progress = -75
			country_event = { id = flavour_ekha.9 }
		}
	}	
	U08_ekha_break_the_chains = {
		icon = the_hundred_years_war
		required_missions = { 
			U08_ekha_amend_the_ancient_laws 
			U08_ekha_the_chase
		}
		position = 3
		
		provinces_to_highlight = {
			OR = {
				AND = {
					province_id = 406
					406 = {
						OR = {
							unrest = 0
							devastation = 0
						}
					}
				}
				AND = {
					province_id = 386
					5898 = {
						OR = {
							unrest = 0
							devastation = 0
						}
					}
				}
			}
		}
		
		trigger = {
			406 = {
				has_owner_religion = yes
				culture_group = akasi
				base_production = 7
				NOT = { devastation = 1 }
				NOT = { unrest = 0 }
			}
			386 = {
				has_owner_religion = yes
				culture_group = akasi
				base_production = 7
				NOT = { devastation = 1 }
				NOT = { unrest = 0 }
			}
		}

		effect = {
			406 = { change_trade_goods = fish}
			386 = { change_trade_goods = wine}
		}
	}
	U08_ekha_consolidate_the_sects = {
		icon = mission_ahmadabad_paper
		required_missions = { U08_ekha_rebuild_the_mountain_temples }
		position = 5
		
		provinces_to_highlight = {
			OR = {
				AND = {
					province_id = 402
					NOT = { owned_by = ROOT }
				}
				AND = {
					province_id = 383
					NOT = { owned_by = ROOT }
				}
				AND = {
					province_id = 382
					NOT = { owned_by = ROOT }
				}
				AND = {
					province_id = 400
					NOT = { owned_by = ROOT }
				}
			}
		}
		
		trigger = {
			estate_influence = {
				estate = estate_church
				influence = 40
			}
			estate_loyalty = {
				estate = estate_church
				loyalty = 60
			}
			owns_or_subject_of = 402
			owns_or_subject_of = 383
			owns_or_subject_of = 382
			owns_or_subject_of = 400
		}

		effect = {
			402 = {
				add_province_modifier = { 
					name = U08_established_sisterhood
					duration = -1  
				}
			}
			383 = {
				add_province_modifier = { 
					name = U08_established_sisterhood
					duration = -1  
				}
			}
			382 = {
				add_province_modifier = { 
					name = U08_established_sisterhood
					duration = -1  
				}
			}
			400 = {
				add_province_modifier = { 
					name = U08_established_sisterhood
					duration = -1  
				}
			}
			custom_tooltip = ekha_consolidate_the_sects_tooltip
			set_country_flag = improved_daughters_of_akasik
		}
	}
}

ekha_missions_3 = {
	slot = 3
	generic = no
	ai = yes
	has_country_shield = yes
	potential = { tag = U08 }
	
		U08_ekha_silver_for_gnolls = {
			icon = mission_spoils_of_war
			required_missions = {}
			position = 1
			
			provinces_to_highlight = {
				AND = {
					region = akasik_region
					owner = {
						AND = {
							has_country_modifier = gnollish_administration
							capital_scope = { region = akasik_region }
						}
					}
				}
			}
			
			trigger = {
				akasik_region = {
					owner = { NOT = { has_country_modifier = gnollish_administration } }
					type = all 
				}
			}

			effect = {
				country_event = { id = flavour_ekha.5 }
				set_country_flag = ekha_cant_integrate
			}
		}
	U08_ekha_support_an_akasi_monarch = {
		icon = mission_assassination
		required_missions = { U08_ekha_silver_for_gnolls }
		position = 2
		
		trigger = {
			has_spy_network_in = {
				who = A47
				value = 40
			}
			U06 = {
				has_opinion = {
				who = U08
				value = 100
				}
			}
			army_size = A47
			adm_power = 100
		}

		effect = {
			add_spy_network_in = {
				who = A47
				value = -40
			}
			add_adm_power = -100
			custom_tooltip = ekha_support_an_akasi_monarch_tooltip
			hidden_effect = {
				U06 = {
					country_event = { 
						id = flavour_deshak.0
						days = 1825
					}
				}
			}
		}
	}
	U08_ekha_drive_them_back = {
		icon = mission_the_battle_for_raichur
		required_missions = { U08_ekha_support_an_akasi_monarch }
		position = 3
		
		trigger = {
			num_of_provinces_owned_or_owned_by_non_sovereign_subjects_with = {
				value = 18
				region = akasik_region
			}
			U06 = { is_subject = no }
			U06 = { is_at_war = no }
			akasik_region = {
				owner = { culture_group = akasi }
				type = all 
			}
		}

		effect = {
			vassalize = U06
			hidden_effect = {
				if = {
					limit = {
						has_country_flag = ekha_accepted_the_prince
					}
				}
				country_event = { 
					id = flavour_ekha.8 
					days = 365
				}
			}
		}
	}
	U08_ekha_rebuild_the_mountain_temples = {
		icon = mission_crush_delhi
		required_missions = { 
			U08_ekha_break_the_chains 
			U08_ekha_drive_them_back
		}
		position = 4
		
		provinces_to_highlight = {
			OR = {
				province_id = 397
				397 = {
					NOT = {
						has_tax_building_trigger = yes
					}
				}
				province_id = 398
				398 = {
					NOT = {
						has_tax_building_trigger = yes
					}
				}
				province_id = 396
				396 = {
					NOT = {
						has_tax_building_trigger = yes
					}
				}
				province_id = 383
				383 = {
					NOT = {
						has_tax_building_trigger = yes
					}
				}
				province_id = 395
				395 = {
					NOT = {
						has_tax_building_trigger = yes
					}
				}
				province_id = 401
				401 = {
					NOT = {
						has_tax_building_trigger = yes
					}
				}
				province_id = 392
				392 = {
					NOT = {
						has_tax_building_trigger = yes
					}
				}
				province_id = 390
				390 = {
					NOT = {
						has_tax_building_trigger = yes
					}
				}
			}
		}
		
		
		trigger = {
			397 = {
				has_tax_building_trigger = yes
			}
			398 = {
				has_tax_building_trigger = yes
			}
			396 = {
				has_tax_building_trigger = yes
			}
			383 = {
				has_tax_building_trigger = yes
			}
			395 = {
				has_tax_building_trigger = yes
			}
			401 = {
				has_tax_building_trigger = yes
			}
			392 = {
				has_tax_building_trigger = yes
			}
			390 = {
				has_tax_building_trigger = yes
			}
		}

		effect = {
		custom_tooltip = ekha_rebuild_the_mountain_temples_tooltip
			hidden_effect = {
				397 = {
					add_base_tax = 1
					add_base_production = 1
					add_base_manpower = 1
				}
				398 = {
					add_base_tax = 1
					add_base_production = 1
					add_base_manpower = 1
				}
				396 = {
					add_base_tax = 1
					add_base_production = 1
					add_base_manpower = 1
				}
				383 = {
					add_base_tax = 1
					add_base_production = 1
					add_base_manpower = 1
				}
				395 = {
					add_base_tax = 1
					add_base_production = 1
					add_base_manpower = 1
				}
				401 = {
					add_base_tax = 1
					add_base_production = 1
					add_base_manpower = 1
				}
				392 = {
					add_base_tax = 1
					add_base_production = 1
					add_base_manpower = 1
				}
				390 = {
					add_base_tax = 1
					add_base_production = 1
					add_base_manpower = 1
				}
			}
			remove_country_modifier = U08_sisterhood_sway
			add_country_modifier = {
				name = U08_sisterhood_entrenched
				duration = -1
			}
		}
	}
	U08_ekha_sway_our_kin = {
		icon = mission_friends_or_enemies
		required_missions = {
			U08_ekha_rebuild_the_mountain_temples
			U08_ekha_promote_dechan_pioneers
		}
		position = 5
		
		trigger = {
			U06 = { 
				NOT = { liberty_desire = 20 }
				has_opinion = {
				who = U08
				value = 190
				}
			}
			F57 = {
				NOT = { liberty_desire = 20 }
				has_opinion = {
				who = U08
				value = 190
				}
			}
			diplomatic_reputation = 2
		}

		effect = {
			add_country_modifier = {
				name = U08_vows_of_silver
				duration = -1
			}
			add_republican_tradition = 10
			clr_country_flag = ekha_cant_integrate
		}
	}
	U08_ekha_forth_to_a_silvery_age = {
		icon = mission_grand_bengali_shipyards
		required_missions = {
			U08_ekha_sway_our_kin
			U08_ekha_consolidate_the_sects
		}
		position = 6
		
		trigger = {
		custom_trigger_tooltip = {
			tooltip = ekha_forth_to_a_silvery_age_tooltip
			has_country_flag = ekha_completed_reforms
		}
			akasik_region = {
				type = all
				owned_by = ROOT
			}
			prestige = 80
		}

		effect = {
			set_country_flag = ekha_forth_to_a_silver_age
			add_government_reform = reformed_silver_council_reform
			add_country_modifier = {
				name = U08_silver_age
				duration = 18250
			}
		}
	}
}

ekha_missions_4 = {
	slot = 4
	generic = no
	ai = yes
	has_country_shield = yes
	potential = { tag = U08 }
	
	U08_ekha_bringing_back_the_silver_armada = {
		icon = crusader_fleet
		required_missions = { U08_ekha_silver_for_gnolls }
		position = 2
		
		trigger = {
			num_of_admirals = 1
			has_estate_privilege = estate_burghers_naval_school_right
			estate_loyalty = {
				estate = estate_burghers
				loyalty = 50
			}
			custom_trigger_tooltip = {
				tooltip = ekha_bringing_back_the_silver_armada_1_tooltip
				OR = {
					has_naval_doctrine = fleet_in_being
					has_naval_doctrine = free_oarsmen
					has_naval_doctrine = merchant_navy
					has_naval_doctrine = ship_boarding
				}
			}
		}
			effect = {
				add_navy_tradition = 15
				402 = { add_building = shipyard }
				custom_tooltip = ekha_bringing_back_the_silver_armada_tooltip
				hidden_effect = {
					salahad_islands_area = { add_permanent_claim = ROOT }
					bernalia_area = { add_permanent_claim = ROOT }
					grahamia_area = { add_permanent_claim = ROOT }
					janama_region = {
						discover_country = U08
					}
					1279 = {
						discover_country = U08
					}
					salahad_islands_area = {
						discover_country = U08
					}
					grahamia_area = {
						discover_country = U08
					}
					bernalia_area = {
						discover_country = U08
					}
					1498 = {
						discover_country = U08
					}
					1585 = {
						discover_country = U08
					}
					1598 = {
						discover_country = U08
					}
					1468 = {
						discover_country = U08
					}
					1609 = {
						discover_country = U08
					}
					1586 = {
						discover_country = U08
					}
					1604 = {
						discover_country = U08
					}
					1467 = {
						discover_country = U08
					}
					1466 = {
						discover_country = U08
					}
				}
			}
		}

	U08_ekha_beyond_the_ekhani_tip = {
		icon = mission_look_west
		required_missions = { U08_ekha_bringing_back_the_silver_armada }
		position = 3
		
		trigger = {
			navy_size_percentage = 0.9
			num_of_colonists = 1
			num_of_provinces_owned_or_owned_by_non_sovereign_subjects_with = {
				value = 1
				colonial_region = colonial_endralliande
				is_city = yes
			}
			colonial_endralliande = {
				has_discovered = ROOT
			}
		}
		effect = {
			define_advisor = {
				type = navigator
				skill = 1
				culture = ekhasi
				religion = mother_akasik
				discount = yes
			}
			pirendral_area = { add_permanent_claim = ROOT }
			north_obaithail_area = { add_permanent_claim = ROOT }
			south_obaithail_area = { add_permanent_claim = ROOT }
			add_country_modifier = {
					name = U08_early_dechan_ventures
					duration = 9125
			}
		}
	}
	U08_ekha_promote_dechan_pioneers = {
		icon = mission_rb_monopolize_the_channel
		required_missions = { 
			U08_ekha_beyond_the_ekhani_tip
			U08_ekha_fangaulan_holdings
		}
		position = 4
		
		trigger = {
			num_of_provinces_owned_or_owned_by_non_sovereign_subjects_with = {
				value = 10
				colonial_region = colonial_endralliande
				is_city = yes
			}
		}
		
		effect = {
		endralliande_region = { add_permanent_claim = ROOT }
		ravenous_isle_region = { add_permanent_claim = ROOT }
		ruined_isles_region = { add_permanent_claim = ROOT }
			add_country_modifier = {
					name = U08_aelantir_riches
					duration = 18250
			}
		}
	}
}
ekha_missions_5 = {
	slot = 5
	generic = no
	ai = yes
	has_country_shield = yes
	potential = { tag = U08 }
	
	U08_ekha_the_role_of_planetouched_in_our_outer_holdings = {
		icon = mission_mage_general
		required_missions = { U08_ekha_silver_for_gnolls }
		position = 2
		
		trigger = {
			has_reform = elemental_right_to_rule 
			has_estate_privilege = estate_church_independent_inquisition
			num_of_generals = 2
		}
		effect = {
			country_event = { id = flavour_ekha.7 }
		}
	}
	U08_ekha_fangaulan_holdings = {
		icon = mission_guarded_market
		required_missions = {
			U08_ekha_the_role_of_planetouched_in_our_outer_holdings
			U08_ekha_bringing_back_the_silver_armada
		}
		position = 3
		
		provinces_to_highlight = {
			OR = {
				AND = {
					OR = {
						area = bernalia_area
						area = grahamia_area
					}
					NOT = { country_or_non_sovereign_subject_holds = ROOT }
				}
				AND = {
					province_id = 5776
					NOT = {
						AND = {
							province_has_center_of_trade_of_level = 2
							has_trade_building_trigger = yes
						}
					}
				}
			}
		}
		
		trigger = {
			num_of_provinces_owned_or_owned_by_non_sovereign_subjects_with = {
					value = 3
					OR = {
						area = bernalia_area
						area = grahamia_area
					}
					is_city = yes
				}
			5776 = {
				owned_by = U08
				is_core = U08
				province_has_center_of_trade_of_level = 2
				has_trade_building_trigger = yes
			}
		}
		effect = {
			5776 = {
				add_province_modifier = { 
					name = U08_the_kaino_port
					duration = -1  
				}
				change_religion = fangaulan_pantheon
			}
			anb_add_accepted_culture_or_dip_power = {
				culture = kaino
			}
			5813 = { add_permanent_claim = ROOT }
		}
	}
	U08_ekha_reunion_and_communion = {
		icon = mission_indian_stateman
		required_missions = { U08_ekha_fangaulan_holdings }
		position = 4
		
		provinces_to_highlight = {
			OR = {
				area = bernalia_area
				area = grahamia_area
			}
			NOT = { is_state_core = ROOT }
		}
		
		trigger = {
			AND = {
				bernalia_area = {
					is_state_core = ROOT
					type = all
				}
				grahamia_area = {
					is_state_core = ROOT
					type = all
				}
			}
			has_estate_privilege = estate_burghers_enforced_interfaith_dialogue
		}
		effect = {
			add_country_modifier = {
				name = U08_bridging_the_gap
				duration = -1
			}
		}
	}
}