# Do not change tags in here without changing every other reference to them.
# Do not change tags in here without changing every other reference to them.
# If adding new groups or ideas, make sure they are unique.

# ai_will do does not actually determine weighting, but AI will not pick an idea with ai_will_do = 0
# ROOT = country picking the idea
# groups set to colonial=yes will be higher prioritized by the AI when spending power

#nahuatl_reforms = {
#	trigger = {
#		religion = nahuatl
#	}	
#
#	can_buy_idea = {
#		vassal = 5
#		is_at_war = no
#		NOT = { num_of_rebel_controlled_provinces = 1 }
#		stability = 1
#		NOT = { doom = 50 }
#	}
#	
#	nahuatl_reform_1 = {
#		war_exhaustion = -0.05
#	}
#	nahuatl_reform_2 = {
#		diplomatic_upkeep = 1
#	}
#	nahuatl_reform_3 = {
#		discipline = 0.05
#	}
#	nahuatl_reform_4 = {
#		colonists = 1
#		auto_explore_adjacent_to_colony = yes
#	}
#	nahuatl_reform_5 = {
#		stability_cost_modifier = -0.2
#	}	
#	
#	ai_will_do = {
#		factor = 1
#	}
#}
#
#inti_reforms = {
#	trigger = {
#		religion = inti
#	}	
#
#	can_buy_idea = {
#		is_at_war = no
#		NOT = { num_of_rebel_controlled_provinces = 1 }
#		stability = 1
#		authority = 100
#		num_of_cities = 10
#	}
#	
#	inti_reform_1 = {
#		manpower_recovery_speed = 0.1
#	}
#	inti_reform_2 = {
#		colonists = 1
#		auto_explore_adjacent_to_colony = yes
#	}
#	inti_reform_3 = {
#		legitimacy = 0.5
#		devotion = 0.5
#	}
#	inti_reform_4 = {
#		land_morale = 0.1
#	}
#	inti_reform_5 = {
#		core_creation = -0.1
#	}	
#	
#	ai_will_do = {
#		factor = 1
#	}
#}
#
#mesoamerican_reforms = {
#	trigger = {
#		religion = mesoamerican_religion
#	}	
#
#	can_buy_idea = {
#		is_at_war = no
#		NOT = { num_of_rebel_controlled_provinces = 1 }
#		stability = 1
#		num_of_cities = 20
#		NOT = { overextension_percentage = 0.01 }
#	}
#	
#	mesoamerican_reform_1 = {
#		land_maintenance_modifier = -0.1
#	}
#	mesoamerican_reform_2 = {
#		global_unrest = -2
#	}
#	mesoamerican_reform_3 = {
#		infantry_power = 0.1
#	}
#	mesoamerican_reform_4 = {
#		colonists = 1
#		auto_explore_adjacent_to_colony = yes
#	}
#	mesoamerican_reform_5 = {
#		core_creation = -0.2
#	}	
#	
#	ai_will_do = {
#		factor = 1
#	}
#}

ynn_river_worship_reform_0 = {
	trigger = {
		religion = ynn_river_worship
	}

	can_buy_idea = {
		NOT = { num_of_rebel_controlled_provinces = 1 }
		is_at_war = no
		stability = 0
		authority = 100
		custom_trigger_tooltip = {
			tooltip = ynn_river_worship_reform_0_buy
			NOT = {
				has_country_flag = yrw_overlord_debating
				has_country_flag = yrw_solo_debate
			}
		}
	}

	ynn_river_worship_reform_0 = {
		prestige = 1
	}
	
	ai_will_do = {
		factor = 1
	}
}

ynn_river_worship_reform_1 = {
	trigger = {
		OR = {
			religion = ynn_river_worship
			religion = ynn_river_reformed
		}
	}

	can_buy_idea = {
		is_at_war = no
		custom_trigger_tooltip = {
			tooltip = ynn_river_worship_reform_1_buy
			OR = {
				has_country_flag = yrw_debate_cheat
				has_country_flag = yrw_1a_reform
				has_country_flag = yrw_1b_reform
			}
		}
	}

	ynn_river_worship_reform_1 = {
		yearly_authority = 0.5
	}
	
	ai_will_do = {
		factor = 1
	}
}

ynn_river_worship_reform_2 = {
	trigger = {
		OR = {
			religion = ynn_river_worship
			religion = ynn_river_reformed
		}
	}

	can_buy_idea = {
		is_at_war = no
		custom_trigger_tooltip = {
			tooltip = ynn_river_worship_reform_2_buy
			OR = {
				has_country_flag = yrw_debate_cheat
				has_country_flag = yrw_2a_reform
				has_country_flag = yrw_2b_reform
			}
		}
	}

	ynn_river_worship_reform_2 = {
		yearly_authority = 0.5
	}
	
	ai_will_do = {
		factor = 1
	}
}

ynn_river_worship_reform_3 = {
	trigger = {
		OR = {
			religion = ynn_river_worship
			religion = ynn_river_reformed
		}
	}

	can_buy_idea = {
		is_at_war = no
		custom_trigger_tooltip = {
			tooltip = ynn_river_worship_reform_3_buy
			OR = {
				has_country_flag = yrw_debate_cheat
				has_country_flag = yrw_3a_reform
				has_country_flag = yrw_3b_reform
			}
		}
		custom_trigger_tooltip = {
			tooltip = has_discovered_a_cannorian_country_tt
			OR = {
				has_country_flag = yrw_debate_3	#Reduces the number of checks by using a simplified condition for AIs
				AND = {
					ai = no
					any_known_country = {
						has_cannorian_tech_group = yes
					}
				}
			}
		}
	}

	ynn_river_worship_reform_3 = {
		yearly_authority = 0.5
	}
	
	ai_will_do = {
		factor = 1
	}
}

ynn_river_worship_reform_4 = {
	trigger = {
		OR = {
			religion = ynn_river_worship
			religion = ynn_river_reformed
		}
	}

	can_buy_idea = {
		is_at_war = no
		custom_trigger_tooltip = {
			tooltip = ynn_river_worship_reform_4_buy
			OR = {
				has_country_flag = yrw_debate_cheat
				has_country_flag = yrw_4a_reform
				has_country_flag = yrw_4b_reform
			}
		}		
		custom_trigger_tooltip = {
			tooltip = has_discovered_a_cannorian_country_tt
			OR = {
				has_country_flag = yrw_debate_4	#Reduces the number of checks by using a simplified condition for AIs
				AND = {
					ai = no
					any_known_country = {
						has_cannorian_tech_group = yes
					}
				}
			}
		}
	}

	ynn_river_worship_reform_4 = {
		yearly_authority = 0.5
	}
	
	ai_will_do = {
		factor = 1
	}
}

night_coven_reforms = {
	trigger = { religion = night_coven }

	can_buy_idea = {
		is_at_war = no
		NOT = { num_of_rebel_controlled_provinces = 1 }
		stability = 1
		if = {
			limit = { ai = no }
			NOT = { overextension_percentage = 0.01 }
		}
		OR = {
			if = {
				limit = {
					NOT = {
						OR = {
							has_country_flag = night_coven_reform_prog_1
							has_country_flag = night_coven_reform_prog_2
							has_country_flag = night_coven_reform_prog_3
							has_country_flag = night_coven_reform_prog_4
						}
					}
				}
				num_of_owned_provinces_with = {
					value = 10
					NOT = { region = yezel_mora_region }
				}
			}
			else_if = {
				limit = { has_country_flag = night_coven_reform_prog_1 }
				num_of_owned_provinces_with = {
					value = 20
					NOT = { region = yezel_mora_region }
				}
			}
			else_if = {
				limit = { has_country_flag = night_coven_reform_prog_2 }
				num_of_owned_provinces_with = {
					value = 30
					NOT = { region = yezel_mora_region }
				}
			}
			else_if = {
				limit = { has_country_flag = night_coven_reform_prog_3 }
				num_of_owned_provinces_with = {
					value = 40
					NOT = { region = yezel_mora_region }
				}
			}
			else_if = {
				limit = { has_country_flag = night_coven_reform_prog_4 }
				num_of_owned_provinces_with = {
					value = 50
					NOT = { region = yezel_mora_region }
				}
			}
		}
	}
	
	night_coven_reform_1 = {
		infantry_power = 0.05
	}
	night_coven_reform_2 = {
		war_exhaustion = -0.03
	}
	night_coven_reform_3 = {
		available_province_loot = 0.50
	}
	night_coven_reform_4 = {
		reinforce_speed = 0.10
	}
	night_coven_reform_5 = {
		spy_offence = 0.15
	}
	ai_will_do = {
		factor = 1
	}
}

gods_of_the_taychend_reform_1 = {
	trigger = {
		OR = {
			religion = gods_of_the_taychend
			religion = oren_nayiru
		}
	}

	can_buy_idea = {
		if = {
			limit = { 
				OR = {
					has_country_flag = free_taychend_reform_flag 
					has_country_flag = G64_skip_first_two_reforms_flag
				}
			}
			always = yes
		}
		else = {
			is_at_war = no
			stability = 1
			NOT = { overextension_percentage = 0.01 }
			NOT = { num_of_rebel_armies = 1 }
			total_development = 100
			calc_true_if = {
				all_subject_country = { NOT = { liberty_desire = 50 } }
				amount = 2
			}
		}
	}

	gods_of_the_taychend_reform_1 = {
		stability_cost_modifier = -0.1
	}
	
	ai_will_do = {
		factor = 1
	}
}

gods_of_the_taychend_reform_2 = {
	trigger = {
		OR = {
			religion = gods_of_the_taychend
			religion = oren_nayiru
		}
	}

	can_buy_idea = {
		custom_trigger_tooltip = {
			tooltip = gods_of_the_taychend_reform_2_buy
			has_country_flag = got_reform_1
		}
		if = {
			limit = { 
				OR = {
					has_country_flag = free_taychend_reform_flag 
					has_country_flag = G64_skip_first_two_reforms_flag
				}
				has_country_flag = got_reform_1
			}
			always = yes
		}
		else = {
			is_at_war = no
			stability = 1
			NOT = { overextension_percentage = 0.01 }
			NOT = { num_of_rebel_armies = 1 }
			total_development = 200
			calc_true_if = {
				all_subject_country = { NOT = { liberty_desire = 50 } }
				amount = 3
			}
			NOT = { average_autonomy = 80 }
		}
	}

	gods_of_the_taychend_reform_2 = {
		tolerance_own = 2
	}
	
	ai_will_do = {
		factor = 1
	}
}

gods_of_the_taychend_reform_3 = {
	trigger = {
		OR = {
			religion = gods_of_the_taychend
			religion = oren_nayiru
		}
	}

	can_buy_idea = {
		custom_trigger_tooltip = {
			tooltip = gods_of_the_taychend_reform_3_buy
			has_country_flag = got_reform_2
		}
		if = {
			limit = { 
				has_country_flag = free_taychend_reform_flag 
				has_country_flag = got_reform_2
			}
			always = yes
		}
		else = {
			is_at_war = no
			stability = 1
			NOT = { overextension_percentage = 0.01 }
			NOT = { num_of_rebel_armies = 1 }
			total_development = 300
			calc_true_if = {
				all_subject_country = { NOT = { liberty_desire = 50 } }
				amount = 4
			}
			NOT = { average_autonomy = 60 }
		}
	}

	gods_of_the_taychend_reform_3 = {
		global_autonomy = -0.05
	}
	
	ai_will_do = {
		factor = 1
	}
}

gods_of_the_taychend_reform_4 = {
	trigger = {
		OR = {
			religion = gods_of_the_taychend
			religion = oren_nayiru
		}
	}

	can_buy_idea = {
		custom_trigger_tooltip = {
			tooltip = gods_of_the_taychend_reform_4_buy
			has_country_flag = got_reform_3
		}
		if = {
			limit = { 
				has_country_flag = free_taychend_reform_flag 
				has_country_flag = got_reform_3
			}
			always = yes
		}
		else = {
			is_at_war = no
			stability = 1
			NOT = { overextension_percentage = 0.01 }
			NOT = { num_of_rebel_armies = 1 }
			total_development = 400
			calc_true_if = {
				all_subject_country = { NOT = { liberty_desire = 50 } }
				amount = 5
			}
			NOT = { average_autonomy = 40 }
		}
	}

	gods_of_the_taychend_reform_4 = {
		idea_cost = -0.1
	}
	
	ai_will_do = {
		factor = 1
	}
}

gods_of_the_taychend_reform_5 = {
	trigger = {
		OR = {
			religion = gods_of_the_taychend
			religion = oren_nayiru
		}
	}

	can_buy_idea = {
		custom_trigger_tooltip = {
			tooltip = gods_of_the_taychend_reform_5_buy
			has_country_flag = got_reform_4
		}
		if = {
			limit = { 
				has_country_flag = free_taychend_reform_flag 
				has_country_flag = got_reform_4
			}
			always = yes
		}
		else = {
			is_at_war = no
			stability = 1
			NOT = { overextension_percentage = 0.01 }
			NOT = { num_of_rebel_armies = 1 }
			total_development = 500
			calc_true_if = {
				all_subject_country = { NOT = { liberty_desire = 50 } }
				amount = 6
			}
			# num_of_provinces_owned_or_owned_by_non_sovereign_subjects_with = {
			# 	value = 110
			# 	superregion = taychend_superregion
			# }
			custom_trigger_tooltip = {
				tooltip = taychend_reform_5_tt
				all_known_country = {
					OR = {
						NOT = { OR = { religion = gods_of_the_taychend religion = oren_nayiru } }
						NOT = { capital_scope = { superregion = taychend_superregion } }
						is_subject_of = ROOT
					}
				}
			}
		}
	}

	gods_of_the_taychend_reform_5 = {
		reform_progress_growth = 0.25
	}
	
	ai_will_do = {
		factor = 1
	}
}

# Intensive Agriculture

feast_of_the_gods_reform_1 = { 
	trigger = {
		OR = {
			religion = feast_of_the_gods
			religion = reformed_feast_of_the_gods
		}
	}

	can_buy_idea = {
		NOT = { num_of_rebel_controlled_provinces = 1 }
		is_at_war = no
		stability = 1
		NOT = { doom = 50 }
		num_of_subjects = 3
		
		num_of_owned_provinces_with = {
			value = 4
			OR = {
				trade_goods = grain
				trade_goods = serpentbloom
				trade_goods = livestock
			}
			base_production = 4 
		
		}
	}

	feast_of_the_gods_reform_1 = {
		production_efficiency = 0.1
	}
	
	ai_will_do = {
		factor = 1
	}
}

# Funerary Cannibalism

feast_of_the_gods_reform_2 = {
	trigger = {
		OR = {
			religion = feast_of_the_gods
			religion = reformed_feast_of_the_gods
		}
	}
	
	can_buy_idea = {
		NOT = { num_of_rebel_controlled_provinces = 1 }
		is_at_war = no
		stability = 1
		NOT = { doom = 50 }
		num_of_subjects = 3
		
		has_institution = feudalism
	}


	feast_of_the_gods_reform_2 = {
		legitimacy = 1
		republican_tradition = 0.5
		devotion = 1
	}
	
	ai_will_do = {
		factor = 1
	}
}

#Abolish the Flesh Tithe

feast_of_the_gods_reform_3 = {
	trigger = {
		OR = {
			religion = feast_of_the_gods
			religion = reformed_feast_of_the_gods
		}
	}

	can_buy_idea = {
		NOT = { num_of_rebel_controlled_provinces = 1 }
		is_at_war = no
		stability = 1
		NOT = { doom = 50 }
		num_of_subjects = 3
		
		num_of_provinces_owned_or_owned_by_non_sovereign_subjects_with = {
			value = 14
			is_city = yes
		}
	}
		

	feast_of_the_gods_reform_3 = {
		vassal_income = 0.25
	}
	
	ai_will_do = {
		factor = 1
	}
}

#Public Feasts

feast_of_the_gods_reform_4 = {
	trigger = {
		OR = {
			religion = feast_of_the_gods
			religion = reformed_feast_of_the_gods
		}
	}

	can_buy_idea = {
		NOT = { num_of_rebel_controlled_provinces = 1 }
		is_at_war = no
		stability = 1
		NOT = { doom = 50 }
		num_of_subjects = 3
		
		prestige = 50
		treasury = 500
	}

	feast_of_the_gods_reform_4 = {
		tolerance_own = 2
	}
	
	ai_will_do = {
		factor = 1
	}
}

#Battlefield Exceptions

feast_of_the_gods_reform_5 = {
	trigger = {
		OR = {
			religion = feast_of_the_gods
			religion = reformed_feast_of_the_gods
		}
	}

	can_buy_idea = {
		NOT = { num_of_rebel_controlled_provinces = 1 }
		is_at_war = no
		stability = 1
		NOT = { doom = 50 }
		num_of_subjects = 3
		
		custom_trigger_tooltip = {
			tooltip = fotg_wars_tt
			check_variable = {
				which = fotg_war_wins
				value = 15
			}
		}
	}

	feast_of_the_gods_reform_5 = {
		shock_damage = 0.10
	}
	
	ai_will_do = {
		factor = 1
	}
}
