namespace = flavour_kobold_dragon_cult

country_event = {
	id = flavour_kobold_dragon_cult.1
	title = flavour_kobold_dragon_cult.1.t
	desc = flavour_kobold_dragon_cult.1.d
	picture = KOBOLD_HOARD_eventPicture
	
	is_triggered_only = yes
	
	immediate = {
		hidden_effect = {
			random_owned_province = {
				save_event_target_as = kobold_event_target
			}
			random_owned_province = {
				limit = {
					religion = kobold_dragon_cult
				}
				save_event_target_as = kobold_event_target
			}
			random_owned_province = {
				limit = {
					religion = kobold_dragon_cult
					NOT = { has_province_modifier = kdc_donated_to_hoard }
				}
				save_event_target_as = kobold_event_target
			}
			set_variable = {
				which = dev2add
				value = 0
			}
			export_to_variable  = {
				which = dev2add
				value = total_development
				who=ROOT
			}
			every_subject_country = {
				set_variable = {
					which = vassaldev
					value = 0
				}
				export_to_variable  = {
					which = vassaldev
					value = total_development
				}
				divide_variable = {
					which = vassaldev
					value = 2
				}
				ROOT = {
					set_variable = {
						which = vassaldev
						which = PREV
					}
					change_variable = {            
						which = dev2add
						which = vassaldev
					}
				}
			}
		}
	}
	
	after = {
		if = {
			limit = {
				has_unlocked_all_kobold_cults = yes

				NOT = { has_country_flag = kobold_power_of_the_rainbow }
			}
			country_event = { id = flavour_kobold_dragon_cult.3 }
		}
	}
	
	# Go back
	option = {
		name = flavour_kobold_dragon_cult.1.a
		highlight = yes
		
		add_church_power = 100
		
		ai_chance = {
			factor = 0
		}
	}
	
	# Contibute to the hoard
	option = {
		name = flavour_kobold_dragon_cult.1.b
		goto = kobold_event_target
		
		trigger = {
			owns = 189
		}
		
		if = {
			limit = {
				NOT = { has_global_flag = dragon_roar }
			}
			
			
			custom_tooltip = church_power_hoard_donation
			add_prestige = 5
			hidden_effect = { 
				REB = { 
					set_variable = {
						which = dev2add
						which = PREV
					}
					change_variable = { 
						which = dragon_cult_hoard 
						which = dev2add 
					} 
				} 
			}
			hidden_effect = { 189 = { upgrade_kobold_hoard = yes } }
		}
		else = {
			var_effect = { effect = add_treasury var = dev2add sign = + } 
		}
		
		event_target:kobold_event_target = {
			add_province_modifier = {
				name = kdc_donated_to_hoard
				duration = 365
			}
		}
	}
	
	option = {
		name = flavour_kobold_dragon_cult.1.c
		
		trigger = {
			can_unlock_kobold_cult_for_level = {
				COLOUR = red
				LEVEL = 2
			}
		}
		unlock_kobold_dragon_cult_for_colour_and_level = {
			LEVEL = 2
			COLOUR = red
		}
	}
	
	option = {
		name = flavour_kobold_dragon_cult.1.c
		
		trigger = {
			can_unlock_kobold_cult_for_level = {
				COLOUR = red
				LEVEL = 3
			}
		}
		
		unlock_kobold_dragon_cult_for_colour_and_level = {
			LEVEL = 3
			COLOUR = red
		}
	}
	
	option = {
		name = flavour_kobold_dragon_cult.1.c
		
		trigger = {
			can_unlock_kobold_cult_for_level = {
				COLOUR = blue
				LEVEL = 2
			}
		}
		unlock_kobold_dragon_cult_for_colour_and_level = {
			LEVEL = 2
			COLOUR = blue
		}
	}
	
	option = {
		name = flavour_kobold_dragon_cult.1.c
		
		trigger = {
			can_unlock_kobold_cult_for_level = {
				COLOUR = blue
				LEVEL = 3
			}
		}
		unlock_kobold_dragon_cult_for_colour_and_level = {
			LEVEL = 3
			COLOUR = blue
		}
	}
	
	option = {
		name = flavour_kobold_dragon_cult.1.c
		
		trigger = {
			can_unlock_kobold_cult_for_level = {
				COLOUR = green
				LEVEL = 2
			}
		}
		unlock_kobold_dragon_cult_for_colour_and_level = {
			LEVEL = 2
			COLOUR = green
		}
	}
	
	option = {
		name = flavour_kobold_dragon_cult.1.c
		
		trigger = {
			can_unlock_kobold_cult_for_level = {
				COLOUR = green
				LEVEL = 3
			}
		}
		unlock_kobold_dragon_cult_for_colour_and_level = {
			LEVEL = 3
			COLOUR = green
		}
	}
	
	option = {
		name = flavour_kobold_dragon_cult.1.c
		
		trigger = {
			can_unlock_kobold_cult_for_level = {
				COLOUR = black
				LEVEL = 2
			}
		}
		unlock_kobold_dragon_cult_for_colour_and_level = {
			LEVEL = 2
			COLOUR = black
		}
	}
	
	option = {
		name = flavour_kobold_dragon_cult.1.c
		
		trigger = {
			can_unlock_kobold_cult_for_level = {
				COLOUR = black
				LEVEL = 3
			}
		}
		unlock_kobold_dragon_cult_for_colour_and_level = {
			LEVEL = 3
			COLOUR = black
		}
	}
	
	option = {
		name = flavour_kobold_dragon_cult.1.c
		
		trigger = {
			can_unlock_kobold_cult_for_level = {
				COLOUR = white
				LEVEL = 2
			}
		}
		unlock_kobold_dragon_cult_for_colour_and_level = {
			LEVEL = 2
			COLOUR = white
		}
	}
	
	option = {
		name = flavour_kobold_dragon_cult.1.c
		
		trigger = {
			can_unlock_kobold_cult_for_level = {
				COLOUR = white
				LEVEL = 3
			}
		}
		unlock_kobold_dragon_cult_for_colour_and_level = {
			LEVEL = 3
			COLOUR = white
		}
	}
	
	option = {
		name = flavour_kobold_dragon_cult.1.c
		
		trigger = {
			can_unlock_kobold_cult_for_level = {
				COLOUR = purple
				LEVEL = 2
			}
		}
		unlock_kobold_dragon_cult_for_colour_and_level = {
			LEVEL = 2
			COLOUR = purple
		}
	}
	
	option = {
		name = flavour_kobold_dragon_cult.1.c
		
		trigger = {
			can_unlock_kobold_cult_for_level = {
				COLOUR = purple
				LEVEL = 3
			}
		}
		unlock_kobold_dragon_cult_for_colour_and_level = {
			LEVEL = 3
			COLOUR = purple
		}
	}
	
	option = {
		name = flavour_kobold_dragon_cult.1.c
		
		trigger = {
			can_unlock_kobold_cult_for_level = {
				COLOUR = brown
				LEVEL = 2
			}
		}
		unlock_kobold_dragon_cult_for_colour_and_level = {
			LEVEL = 2
			COLOUR = brown
		}
	}
	
	option = {
		name = flavour_kobold_dragon_cult.1.c
		
		trigger = {
			can_unlock_kobold_cult_for_level = {
				COLOUR = brown
				LEVEL = 3
			}
		}
		unlock_kobold_dragon_cult_for_colour_and_level = {
			LEVEL = 3
			COLOUR = brown
		}
	}
	
	option = {
		name = flavour_kobold_dragon_cult.1.c
		
		trigger = {
			can_unlock_kobold_cult_for_level = {
				COLOUR = brass
				LEVEL = 2
			}
		}
		unlock_kobold_dragon_cult_for_colour_and_level = {
			LEVEL = 2
			COLOUR = brass
		}
	}
	
	option = {
		name = flavour_kobold_dragon_cult.1.c
		
		trigger = {
			can_unlock_kobold_cult_for_level = {
				COLOUR = brass
				LEVEL = 3
			}
		}
		unlock_kobold_dragon_cult_for_colour_and_level = {
			LEVEL = 3
			COLOUR = brass
		}
	}
	
	option = {
		name = flavour_kobold_dragon_cult.1.c
		
		trigger = {
			can_unlock_kobold_cult_for_level = {
				COLOUR = copper
				LEVEL = 2
			}
		}
		unlock_kobold_dragon_cult_for_colour_and_level = {
			LEVEL = 2
			COLOUR = copper
		}
	}
	
	option = {
		name = flavour_kobold_dragon_cult.1.c
		
		trigger = {
			can_unlock_kobold_cult_for_level = {
				COLOUR = copper
				LEVEL = 3
			}
		}
		unlock_kobold_dragon_cult_for_colour_and_level = {
			LEVEL = 3
			COLOUR = copper
		}
	}
	
	option = {
		name = flavour_kobold_dragon_cult.1.c
		
		trigger = {
			has_church_aspect = bronze_dragon_1
			NOT = { has_country_flag = unlocked_bronze_dragon_2 }
		}
		trigger = {
			can_unlock_kobold_cult_for_level = {
				COLOUR = bronze
				LEVEL = 2
			}
		}
		unlock_kobold_dragon_cult_for_colour_and_level = {
			LEVEL = 2
			COLOUR = bronze
		}
	}
	
	option = {
		name = flavour_kobold_dragon_cult.1.c
		
		trigger = {
			can_unlock_kobold_cult_for_level = {
				COLOUR = bronze
				LEVEL = 3
			}
		}
		unlock_kobold_dragon_cult_for_colour_and_level = {
			LEVEL = 3
			COLOUR = bronze
		}
	}
	
	option = {
		name = flavour_kobold_dragon_cult.1.c
		
		trigger = {
			can_unlock_kobold_cult_for_level = {
				COLOUR = silver
				LEVEL = 2
			}
		}
		unlock_kobold_dragon_cult_for_colour_and_level = {
			LEVEL = 2
			COLOUR = silver
		}
	}
	
	option = {
		name = flavour_kobold_dragon_cult.1.c
		

		trigger = {
			can_unlock_kobold_cult_for_level = {
				COLOUR = silver
				LEVEL = 3
			}
		}
		unlock_kobold_dragon_cult_for_colour_and_level = {
			LEVEL = 3
			COLOUR = silver
		}
	}
	
	option = {
		name = flavour_kobold_dragon_cult.1.c
		
		trigger = {
			can_unlock_kobold_cult_for_level = {
				COLOUR = gold
				LEVEL = 2
			}
		}
		unlock_kobold_dragon_cult_for_colour_and_level = {
			LEVEL = 2
			COLOUR = gold
		}
	}
	
	option = {
		name = flavour_kobold_dragon_cult.1.c
		
		trigger = {
			can_unlock_kobold_cult_for_level = {
				COLOUR = gold
				LEVEL = 3
			}
		}
		unlock_kobold_dragon_cult_for_colour_and_level = {
			LEVEL = 3
			COLOUR = gold
		}
	}
}

#The KoboldHoard
country_event = {
	id = flavour_kobold_dragon_cult.2
	title = flavour_kobold_dragon_cult.2.t
	desc = flavour_kobold_dragon_cult.2.d
	picture = KOBOLD_HOARD_eventPicture
	
	is_triggered_only = yes
	
	trigger = {
		religion = kobold_dragon_cult
		NOT = { has_global_flag = dragon_roar }
	}
	
	# little investment
	option = {		
		name = flavour_kobold_dragon_cult.2.a
		ai_chance = { factor = 50 }	
		trigger = { treasury = 100 }
		add_treasury = -100
		if = {
			limit = { has_church_aspect = red_dragon_1 }
			add_church_power = 20
		}
		else = {
			add_church_power = 10
		}
		hidden_effect = { REB = { change_variable = { dragon_cult_hoard = 100 } } }
		tooltip = { random = { chance = 10 add_stability_or_adm_power = yes } }
		set_country_flag = hoard_chance_1
		hidden_effect = { country_event = { id = flavor_kobildzan.100 } }
		hidden_effect = { country_event = { id = flavour_kobold_dragon_cult.4 } }
		hidden_effect = { 189 = { upgrade_kobold_hoard = yes } }
	}
	
	# Normal investment
	option = {		
		name = flavour_kobold_dragon_cult.2.b
		ai_chance = { factor = 50 }	
		trigger = { treasury = 250 }
		add_treasury = -250
		if = {
			limit = { has_church_aspect = red_dragon_1 }
			add_church_power = 50
		}
		else = {
			add_church_power = 25
		}
		hidden_effect = { REB = { change_variable = { dragon_cult_hoard = 250 } } }
		add_prestige = 2
		tooltip = { random = { chance = 25 add_stability_or_adm_power = yes } }
		set_country_flag = hoard_chance_2
		hidden_effect = { country_event = { id = flavor_kobildzan.100 } }
		hidden_effect = { country_event = { id = flavour_kobold_dragon_cult.4 } }
		hidden_effect = { 189 = { upgrade_kobold_hoard = yes } }
	}
	
	# Big investment
	option = {		
		name = flavour_kobold_dragon_cult.2.c
		ai_chance = { factor = 50 }	
		trigger = { treasury = 500 }
		add_treasury = -500
		if = {
			limit = { has_church_aspect = red_dragon_1 }
			add_church_power = 100
		}
		else = {
			add_church_power = 50
		}
		hidden_effect = { REB = { change_variable = { dragon_cult_hoard = 500 } } }
		add_prestige = 5
		tooltip = { random = { chance = 50 add_stability_or_adm_power = yes } }
		set_country_flag = hoard_chance_3
		hidden_effect = { country_event = { id = flavor_kobildzan.100 } }
		hidden_effect = { country_event = { id = flavour_kobold_dragon_cult.4 } }
		hidden_effect = { 189 = { upgrade_kobold_hoard = yes } }
	}
	
	# Huge investment
	option = {		
		name = flavour_kobold_dragon_cult.2.e
		ai_chance = { factor = 50 }	
		trigger = { treasury = 1000 }
		add_treasury = -1000
		if = {
			limit = { has_church_aspect = red_dragon_1 }
			add_church_power = 200
		}
		else = {
			add_church_power = 100
		}
		hidden_effect = { REB = { change_variable = { dragon_cult_hoard = 1000 } } }
		add_prestige = 10
		add_stability_or_adm_power = yes
		hidden_effect = { country_event = { id = flavour_kobold_dragon_cult.4 } }
		hidden_effect = { 189 = { upgrade_kobold_hoard = yes } }
	}
	
	# Colossal investment
	option = {		
		name = flavour_kobold_dragon_cult.2.f
		ai_chance = { factor = 50 }
		trigger = { treasury = 2000 }
		add_treasury = -2000
		add_church_power = 200
		hidden_effect = { REB = { change_variable = { dragon_cult_hoard = 2000 } } }
		add_prestige = 25
		add_stability_or_adm_power = yes
		add_stability_or_adm_power = yes
		hidden_effect = { country_event = { id = flavour_kobold_dragon_cult.4 } }
		hidden_effect = { 189 = { upgrade_kobold_hoard = yes } }
	}
	
	option = {		
		name = flavour_kobold_dragon_cult.2.g
		ai_chance = { factor = 50 }
		trigger = { treasury = 5000 }
		add_treasury = -5000
		add_church_power = 200
		hidden_effect = { REB = { change_variable = { dragon_cult_hoard = 5300 } } }
		add_prestige = 50
		add_stability_or_adm_power = yes
		add_stability_or_adm_power = yes
		add_stability_or_adm_power = yes
		add_stability_or_adm_power = yes
		add_stability_or_adm_power = yes
		hidden_effect = { country_event = { id = flavour_kobold_dragon_cult.4 } }
		hidden_effect = { 189 = { upgrade_kobold_hoard = yes } }
	}
	
	# Go Back
	option = {		
		name = flavour_kobold_dragon_cult.2.h
		ai_chance = { factor = 50 }
		highlight = yes
		hidden_effect = { clr_country_flag = kobold_hoard_menu }
	}
}

# Unlock malliath
country_event = {
	id = flavour_kobold_dragon_cult.3
	title = flavour_kobold_dragon_cult.3.t
	desc = flavour_kobold_dragon_cult.3.d
	picture = KOBOLD_HOARD_eventPicture
	
	is_triggered_only = yes
	
	# Coolio
	option = {		
		name = flavour_kobold_dragon_cult.3.a
		ai_chance = { factor = 50 }

		add_country_modifier = {
			name = rainbow_dragon_1
			duration = -1
		}
		#unlock_kobold_dragon_cult_for_colour_and_level = {
		#	LEVEL = 1
		#	COLOUR = rainbow
		#}
	}
}


country_event = {
	id = flavour_kobold_dragon_cult.4
	title = flavour_kobold_dragon_cult.4.t
	desc = flavour_kobold_dragon_cult.4.d
	picture = GREAT_BUILDING_eventPicture
	
	is_triggered_only = yes
	hidden = yes
	
	trigger = {
		always = yes
	}
	
	# Dragon Spawn
	option = {		
		name = flavour_kobold_dragon_cult.4.a
		ai_chance = { factor = 50 }	
		country_event = { id = flavour_kobold_dragon_cult.2 }
	}
}