

namespace = rahen


country_event = { #Event to make Rajnadhaga and dwarven adventurers friends
	id = rahen.1
	title = rahen.1.t
	desc = rahen.1.d
	picture = WESTERNISATION_eventPicture

	is_triggered_only = yes
	fire_only_once = yes

	trigger = { always = yes } #triggers in on_action file

	immediate = { hidden_effect = { 4266 = { owner = { save_event_target_as = krakazol_friend } } } }

	option = { #can't wait to meet em
		name = rahen.1.a
		ai_chance = { factor = 100 }
		if = {
			limit = { is_claim = 4266 }
			remove_claim = 4266
		}
		add_truce_with = event_target:krakazol_friend
		add_historical_friend = event_target:krakazol_friend
		event_target:krakazol_friend = { add_historical_friend = ROOT }
		add_legitimacy = 15
		add_prestige = 10
	}
	option = { #can't wait to conquer em
		name = rahen.1.b
		ai_chance = { factor = 0 }
	}
}

# province_event = { #Event to make Rajnadhaga and dwarven adventurers friends
# 	id = rahen.1
# 	title = rahen.1.t
# 	desc = rahen.1.d
# 	picture = WESTERNISATION_eventPicture

# 	is_triggered_only = yes
# 	fire_only_once = yes
	
# 	trigger = {
# 		province_id = 4266
# 		owner = { culture_group = dwarven has_reform = dwarovar_adventurer_reform }
# 		4462 = {
# 			owner = {
# 				NOT = {
# 					tag = R62
# 					is_rival = ROOT
# 					is_subject = yes
# 				}
# 			}
# 		}
# 	}

# 	option = { #Reach out to Rajnadhaga to strike a deal
# 		name = rahen.1.a
# 		ai_chance = {
# 			factor = 1
# 		}
# 		4462 = {
# 			owner = {
# 				country_event = {
# 					id = rahen.2
# 					days = 1
# 				}
# 			}
# 		}
# 		owner = { add_treasury = -50 }
# 	}
# 	option = { #We don't need them
# 		name = rahen.1.b
# 		ai_chance = {
# 			factor = 0
# 		}
# 		owner = { add_prestige = 10 }
# 	}
# }
# country_event = { #Rajnadhaga's response
# 	id = rahen.2
# 	title = rahen.2.t
# 	desc = rahen.2.d
# 	picture = WESTERNISATION_eventPicture

# 	is_triggered_only = yes

# 	option = { #Reach out to Rajnadhaga to strike a deal
# 		name = rahen.2.a
# 		ai_chance = {
# 			factor = 1
# 		}
# 		add_treasury = 50
# 		create_alliance = FROM
# 		add_historical_friend = FROM
# 		FROM = { owner = { add_historical_friend = ROOT } }
# 	}
# 	option = { #Take their gifts but refuse the deal
# 		name = rahen.2.b
# 		ai_chance = {
# 			factor = 0
# 		}
# 		add_treasury = 50
# 		FROM = { add_casus_belli = { target = ROOT type = cb_insult months = 12 } }
# 	}
# }

country_event = { #Event giving Raghamideshi with Shenral nobles trade power in Raj
	id = rahen.3
	title = rahen.3.t
	desc = rahen.3.d
	picture = MERCHANTS_TALKING_eventPicture

	is_triggered_only = yes

	trigger = {
		primary_culture = raghamidesh
		NOT = { tag = R44 }
		NOT = { owns_core_province = 4368 }
		NOT = { has_country_flag = ragham_shenral_trade_buff }	
		dynasty = "of the Vengeful Gaze"
	}
	
	immediate = {
		set_country_flag = ragham_shenral_trade_buff
	}

	option = { 
		name = rahen.3.a
		4435 = {
			add_trade_modifier = {
				who = ROOT
				duration = 3650
				power = 10
				key = STRONG_MERCHANTS
			}
		}
		4485 = {
			add_trade_modifier = {
				who = ROOT
				duration = 3650
				power = 10
				key = STRONG_MERCHANTS
			}
		}
	}
}

country_event = { #Event giving Raghamidesh state cores on Shenral
	id = rahen.4
	title = rahen.4.t
	desc = rahen.4.d
	picture = LAND_MILITARY_eventPicture

	is_triggered_only = yes

	trigger = {
		primary_culture = raghamidesh
		NOT = { tag = R44 }
		NOT = { owns_core_province = 4368 }
		NOT = { has_country_flag = ragham_shenral_cores }	
		dynasty = "of the Vengeful Gaze"
	}
	
	immediate = {
		set_country_flag = ragham_shenral_cores
	}

	option = { 
		name = rahen.4.a
		shenral_area = {
			add_core = ROOT
		}
	}
}

province_event = { #Guru Suhan and the Hall of Endless Debate (Suhan goes Sicko Mode)
	id = rahen.5
	title = rahen.5.t
	desc = rahen.5.d
	picture = LAND_MILITARY_eventPicture

	is_triggered_only = yes

	trigger = {
		is_year = 1480
		superregion = rahen_superregion
		religion = high_philosophy
	}
	
	immediate = {
		hidden_effect = {
			set_global_flag = suhan_goes_sicko_mode
			4411 = {
				set_variable = {
					which = suhanProgress
					value = 1
				}
			}
		}
	}

	option = { 
		name = rahen.5.a
	}
}

province_event = { #The Suhanic Reformation
	id = rahen.6
	title = rahen.6.t
	desc = rahen.6.d
	picture = LAND_MILITARY_eventPicture

	is_triggered_only = yes
	fire_only_once = yes
	
	immediate = {
		hidden_effect = {
			enable_religion = suhans_praxis
			change_religion = suhans_praxis
			add_province_modifier = {
				name = agenda_conversion_zeal
				duration = 9000
			}
			if = {
				limit = {
					NOT = { is_capital = yes }
					owner = {
						capital_scope = {
							religion = high_philosophy
							continent = asia
							NOT = { superregion = forbidden_lands_superregion }
						}
					}
				}
				owner = {
					capital_scope = {
						change_religion = suhans_praxis
						add_province_modifier = {
							name = agenda_conversion_zeal
							duration = 9000
						}
					}
				}
			}
			4435 = {
				change_religion = suhans_praxis
				add_province_modifier = {
					name = agenda_conversion_zeal
					duration = 9000
				}
				add_permanent_province_modifier = {
					name = high_philosophy_school_origin_synthetic_truth
					duration = -1
				}
			}
			set_global_flag = suhan_1
			save_global_event_target_as = suhan_center
			4411 = {
				change_variable = {
					which = suhanProgress
					value = 1
				}
			}
		}
	}

	option = { 
		name = rahen.6.a
		add_reform_center = suhans_praxis
	}

	after = {
		hidden_effect = {
			clr_global_flag = suhan_secondary_sicko_mode
		}
	}
}

province_event = { #Suhan on da move to Rahen Coast
	id = rahen.7
	title = rahen.7.t
	desc = rahen.7.d
	picture = LAND_MILITARY_eventPicture

	is_triggered_only = yes
	fire_only_once = yes
	
	immediate = {
		hidden_effect = {
			change_religion = suhans_praxis
			event_target:suhan_center = {
				remove_reform_center = suhans_praxis
			}
			add_province_modifier = {
				name = agenda_conversion_zeal
				duration = 9000
			}
			if = {
				limit = { NOT = { is_capital = yes } }
				owner = {
					capital_scope = {
						change_religion = suhans_praxis
						add_province_modifier = {
							name = agenda_conversion_zeal
							duration = 9000
						}
					}
				}
			}
			clr_global_flag = suhan_1
			set_global_flag = suhan_2
			save_global_event_target_as = suhan_center
			4411 = {
				change_variable = {
					which = suhanProgress
					value = 1
				}
			}
		}
	}

	option = { 
		name = rahen.7.a
		add_reform_center = suhans_praxis
	}
}

province_event = { #Suhan on da move to Dhujat
	id = rahen.8
	title = rahen.7.t
	desc = rahen.8.d
	picture = LAND_MILITARY_eventPicture

	fire_only_once = yes
	is_triggered_only = yes
	
	immediate = {
		hidden_effect = {
			change_religion = suhans_praxis
			event_target:suhan_center = {
				remove_reform_center = suhans_praxis
			}
			add_province_modifier = {
				name = agenda_conversion_zeal
				duration = 9000
			}
			if = {
				limit = {
					NOT = { is_capital = yes }
					owner = {
						capital_scope = {
							religion = high_philosophy
							continent = asia
							NOT = { superregion = forbidden_lands_superregion }
						}
					}
				}
				owner = {
					capital_scope = {
						change_religion = suhans_praxis
						add_province_modifier = {
							name = agenda_conversion_zeal
							duration = 9000
						}
					}
				}
			}
			clr_global_flag = suhan_2
			set_global_flag = suhan_3
			save_global_event_target_as = suhan_center
			4411 = {
				change_variable = {
					which = suhanProgress
					value = 1
				}
			}
		}
	}

	option = { 
		name = rahen.8.a
		add_reform_center = suhans_praxis
	}
}

province_event = { #Suhan on da move to Bomdan
	id = rahen.9
	title = rahen.7.t
	desc = rahen.9.d
	picture = LAND_MILITARY_eventPicture

	fire_only_once = yes
	is_triggered_only = yes
	
	immediate = {
		hidden_effect = {
			change_religion = suhans_praxis
			event_target:suhan_center = {
				remove_reform_center = suhans_praxis
			}
			add_province_modifier = {
				name = agenda_conversion_zeal
				duration = 9000
			}
			if = {
				limit = {
					NOT = { is_capital = yes }
					owner = {
						capital_scope = {
							religion = high_philosophy
							continent = asia
							NOT = { superregion = forbidden_lands_superregion }
						}
					}
				}
				owner = {
					capital_scope = {
						change_religion = suhans_praxis
						add_province_modifier = {
							name = agenda_conversion_zeal
							duration = 9000
						}
					}
				}
			}
			clr_global_flag = suhan_3
			set_global_flag = suhan_4
			save_global_event_target_as = suhan_center
			4411 = {
				change_variable = {
					which = suhanProgress
					value = 1
				}
			}
		}
	}

	option = { 
		name = rahen.9.a
		add_reform_center = suhans_praxis
	}
}

province_event = { #Suhan is fucking dead - died in peace
	id = rahen.10
	title = rahen.10.t
	desc = rahen.10.d
	picture = TIGER_THRONE_eventPicture

	fire_only_once = yes
	is_triggered_only = yes
	major = yes

	option = { 
		name = rahen.10.a
		end_suhans_reformation = yes
	}
}

country_event = { #Suhan is fucking dead - got dabbed on
	id = rahen.11
	title = rahen.11.t
	desc = rahen.11.d
	picture = TIGER_THRONE_eventPicture

	fire_only_once = yes
	is_triggered_only = yes
	major = yes

	trigger = {
		has_global_flag = suhan_4
		event_target:suhan_center = {
			region = bomdan_region
			is_reformation_center = no
		}
	}

	option = { 
		name = rahen.11.a
		end_suhans_reformation = yes
		custom_tooltip = suhan_reformation_end_HP_tt
		hidden_effect = {
			every_country = {
				limit = { religion = high_philosophy }
				add_country_modifier = {
					name = suhan_got_ganked
					duration = 9125
				}
			}
		}
	}
}

country_event = { #Suhan is triumphant
	id = rahen.12
	title = rahen.12.t
	desc = rahen.12.d
	picture = TIGER_THRONE_eventPicture

	fire_only_once = yes
	is_triggered_only = yes
	major = yes

	option = { 
		name = rahen.12.a
		end_suhans_reformation = yes
		custom_tooltip = suhan_reformation_end_SP_tt
		hidden_effect = {
			every_country = {
				limit = { religion = suhans_praxis }
				add_country_modifier = {
					name = suhan_dabbed_on_them
					duration = -1
				}
			}
		}
	}
}

country_event = { #convert to praxis?
	id = rahen.13
	title = rahen.13.t
	desc = rahen.13.d
	picture = HIGH_TEMPLE_CITY_eventPicture

	is_triggered_only = yes

	trigger = {
		religion = high_philosophy
		capital_scope = { religion = suhans_praxis }
	}

	option = { 
		name = rahen.13.a
		ai_chance = {
			factor = 100
			modifier = {
				factor = 0
				tag = R51
			}
			modifier = {
				factor = 0.1
				NOT = { num_of_cities = 2 }
			}
		}
		add_stability = -1
		change_religion = suhans_praxis
		hidden_effect = {
			if = { limit = { tag = R61 } set_country_flag = pasiragha_flag_chose_sp }
		}
	}
	option = { 
		name = rahen.13.b
		ai_chance = { factor = 20 }
		add_prestige = 10
		capital_scope = { add_unrest = 5 }
		hidden_effect = {
			if = { limit = { tag = R61 } set_country_flag = pasiragha_flag_chose_hp }
		}
	}
}

country_event = {
	id = rahen.14
	title = rahen.14.t
	desc = rahen.14.d
	picture = REFUGEES_ESCAPING_eventPicture
	goto = rahen_exodus_target_3
	
	mean_time_to_happen = {
		months = 60
	}

	trigger = {
		current_age = age_of_reformation 
		NOT = {
			has_global_flag = rahen_exodus_complete
		}
		capital_scope = { superregion = rahen_superregion }
		any_owned_province = { 
			superregion = rahen_superregion
			has_dwarven_minority_trigger = yes
		}
		any_known_country = {
			has_country_modifier = dwarven_administration
			num_of_owned_provinces_with = {
				value = 7
				region = tree_of_stone_region
			}
			OR = {
				owns = 4265 	#Grozumdihr
				owns = 4247		#Ovdal Kanzad
				owns = 4266 	#Hul-az-Krakazol
				owns = 4284 	#Ovdal-az-An
			}
		}
	}

	goto = rahen_exodus_target_3 

	immediate = {
		hidden_effect = {
			random_known_country = {
				limit = {
					has_country_modifier = dwarven_administration
					num_of_owned_provinces_with = {
						value = 7
						region = tree_of_stone_region
					}
					OR = {
						owns = 4265 	#Grozumdihr
						owns = 4247		#Ovdal Kanzad
						owns = 4266 	#Hul-az-Krakazol
						owns = 4284 	#Ovdal-az-An
					}
				}
				save_event_target_as = rahen_exodus_target_2
			}
			random_owned_province = { 
				limit = {
					superregion = rahen_superregion
					has_dwarven_minority_trigger = yes
				}
				save_event_target_as = rahen_exodus_target_3
			}
		}
	}

	option = {
        name = rahen.14.a
		event_target:rahen_exodus_target_3 = {
			remove_dwarven_minority_size_effect = yes
		}
		hidden_effect = {
			event_target:rahen_exodus_target_2 = {
				country_event = {
					id = rahen.15
				}
			}
		}
	}

	option = {
        name = rahen.14.b
		small_decrease_of_dwarven_tolerance_effect = yes
		event_target:rahen_exodus_target_3 = { add_unrest = 5 }
	}
}

country_event = {
	id = rahen.15
	title = rahen.15.t
	desc = rahen.15.d
	picture = HIGH_TEMPLE_CITY_eventPicture
	
	is_triggered_only = yes
	goto = rahen_exodus_target_1

	immediate = {
        hidden_effect = {
            if = {
                limit = { has_global_flag = rahen_exodus_3 }
                set_global_flag = rahen_exodus_complete
                clr_global_flag = rahen_exodus_3
            }
            else_if = { 
                limit = { has_global_flag = rahen_exodus_2 }
                set_global_flag = rahen_exodus_3
                clr_global_flag = rahen_exodus_2
            }
            else_if = { 
                limit = { has_global_flag = rahen_exodus_1 }
                set_global_flag = rahen_exodus_2
                clr_global_flag = rahen_exodus_1
            }
            else = { 
                set_global_flag = rahen_exodus_1
            }
            random_owned_province = { 
				limit = {
					region = tree_of_stone_region
					has_terrain = dwarven_road
				}
                save_event_target_as = rahen_exodus_target_1
        	}
        }
    }

	option = {
        name = rahen.15.a
		event_target:rahen_exodus_target_1 = {
			add_base_tax = 1
			add_base_production = 1
			add_base_manpower = 1
			random_list = {
				33 = { add_base_tax = 1 }
				33 = { add_base_production = 1 }
				33 = { add_base_manpower = 1 }
			}
		}
	}
}
country_event = { #Raheni artist
	id = rahen.16
	title = rahen.16.t
	desc = rahen.16.d
	picture = ADVISOR_eventPicture		

	is_triggered_only = yes
	fire_only_once = yes

	trigger = {
		is_year = 1510
		capital_scope = {
			region = dhujat_region
		}
	}

	option = {
		name = rahen.16.a
		define_advisor = {
			type = artist
			name = "Indrana Lalikesh Vinashkar"
			skill = 2
			culture = rasarhid
			discount = yes
		}
	}
}

country_event = { #The concept of Vanrahar
	id = rahen.17
	title = rahen.17.t
	desc = rahen.17.d
	picture = TIGER_BODYGUARD_eventPicture

	is_triggered_only = yes
	fire_only_once = yes
	
	trigger = {
		is_year = 1520
		capital_scope = {
			region = rahen_coast_region
		}
		primary_culture = primal_harimari
	}

	immediate = {
		every_owned_province = {
			limit = {
				region = rahen_coast_region
				has_province_modifier = human_majority_primary
			}
			save_event_target_as = raghamidesh_human_province
		}
	}

	option = {
		name = rahen.17.a
		event_target:raghamidesh_human_province = {
			add_unrest = 3
		}
		add_country_modifier = {
			name = jungle_paradise
			duration = 3650
		}
	}

	option = {
		name = rahen.17.b
		trigger = {
			tag = R77
		}
		add_prestige = 15
		define_advisor = {
			type = philosopher
			name = "Ahsokar of the Gleaming Claw"
			culture = primal_harimari
			discount = yes
		}
	}
}

country_event = { #Cheaper sarisung porcelain
	id = rahen.18
	title = rahen.18.t
	desc = rahen.18.d
	picture = TRADEGOODS_eventPicture

	is_triggered_only = yes

	trigger = {
		capital_scope = { superregion = rahen_superregion }
		4470 = {
			owner = {
				has_reform = gang_control_reform
			} 
		}
		any_owned_province = {
			has_province_modifier = porcelain_city
		}
		NOT = { has_country_modifier = ban_sarisung_porcelain }
		NOT = { has_country_modifier = made_in_sarisung }
	}
	

	option = {
		name = rahen.18.a
		add_prestige = 10
		add_country_modifier = {
			name = ban_sarisung_porcelain
			duration = 3650
		}
	}

	option = {
		name = rahen.18.b
		4470 = {
			owner = {
				add_opinion = {
					who = ROOT
					modifier = rahen_sarisung_porcelain
				}
			}
		}
		add_country_modifier = {
			name = made_in_sarisung
			duration = 3650
		}
	}
}

country_event = { #cannorian discovery of rahen
	id = rahen.19
	title = rahen.19.t
	desc = rahen.19.d
	picture = HARBOUR_eventPicture

	is_triggered_only = yes
	fire_only_once = yes
	major = yes
	
	trigger = {
		capital_scope = {
			superregion = rahen_superregion
		}
		is_year = 1530
		4380 = {
			owned_by = ROOT
		}
	}

	option = {
		name = rahen.19.a
		add_prestige = 10
		set_global_flag = cannorian_in_rahen
	}
}

country_event = {
	id = rahen.20
	title = rahen.20.t
	desc = rahen.20.d
	picture = MERCHANTS_TALKING_eventPicture

	is_triggered_only = yes

	trigger = {
		has_global_flag = cannorian_in_rahen
		capital_scope = {
			superregion = rahen_superregion
		}
		any_owned_province = {
			has_province_modifier = porcelain_city
			NOT = { has_province_modifier = kharunyana_cannorian }
		}
		NOT = { has_country_modifier = ban_cannorian }
		NOT = { has_country_modifier = expel_cannorian }
		NOT = { has_country_modifier = lenient_porcelain_criminal }
	}
	

	immediate = {
		random_owned_province = {
			limit = {
				has_province_modifier = porcelain_city
				NOT = { has_province_modifier = kharunyana_cannorian }
			}
			save_event_target_as = rahen_porcelain_city
		}
	}

	option = {
		name = rahen.20.a
		add_estate_loyalty = {
			estate = estate_lowercastes
			loyalty = 10
		}
		add_country_modifier = {
			name = ban_cannorian
			duration = 3650
		}
	}

	option = {
		name = rahen.20.b
		add_estate_loyalty = {
			estate = estate_middlecastes
			loyalty = 10
		}
		event_target:rahen_porcelain_city = {
			add_province_modifier = {
				name = kharunyana_cannorian
				duration = 3650
			}
		}
		hidden_effect = {
			random = {
				chance = 30
				country_event = {
					id = rahen.21
					days = 730
					random = 30
				}
			}
		}
	}
}

country_event = { #porcelain espionage
	id = rahen.21
	title = rahen.21.t
	desc = rahen.21.desc
	picture = ANGRY_MOB_eventPicture

	is_triggered_only = yes

	immediate = {
		every_owned_province = {
			limit = {
				has_province_modifier = kharunyana_cannorian
			}
			save_event_target_as = porcelain_foreign_quarters
		}
	}

	option = {
		name = rahen.21.a
		add_country_modifier = {
			name = expel_cannorian
			duration = 1825
		}
		every_owned_province = {
			remove_province_modifier = kharunyana_cannorian
		}
	}

	option = {
		name = rahen.21.b
		add_prestige = 10
		event_target:porcelain_foreign_quarters = {
			add_province_modifier = {
				name = porcelain_criminal
				duration = 1825
			}
		}
	}

	option = {
		name = rahen.21.c
		add_country_modifier = {
			name = lenient_porcelain_criminal
			duration = 1825
		}
	}
}

country_event = { #tiger ziggurat
	id = rahen.22
	title = rahen.22.t
	desc = rahen.22.d
	picture = GREAT_BUILDING_eventPicture

	is_triggered_only = yes

	trigger = {
		4466 = {
			owned_by = ROOT
		}
		NOT = { has_country_modifier = pilgrim_piety }
	}

	option = {
		name = rahen.22.a
		add_prestige = 15
		add_country_modifier = {
			name = pilgrim_piety
			duration = 1825
		}
	}

	option = {
		name = rahen.22.b
		add_years_of_income = 1
		add_prestige = -15
	}
}

country_event = { #elephant ziggurat
	id = rahen.23
	title = rahen.23.t
	desc = rahen.23.d
	picture = GREAT_BUILDING_eventPicture

	is_triggered_only = yes

	trigger = {
		4509 = {
			owned_by = ROOT
		}
		NOT = { has_country_modifier = pilgrim_piety }
	}

	option = {
		name = rahen.23.a
		add_prestige = 15
		add_country_modifier = {
			name = pilgrim_piety
			duration = 1825
		}
	}

	option = {
		name = rahen.23.b
		add_years_of_income = 1
		add_prestige = -15
	}
}

country_event = { #pilgrimage
	id = rahen.24
	title = rahen.24.t
	desc = rahen.24.d
	picture = PRAYING_eventPicture

	is_triggered_only = yes

	trigger = {
		4466 = {
			owned_by = ROOT
		}
		4509 = {
			owned_by = ROOT
		}
		NOT = { has_country_modifier = pilgrim_piety }
	}

	option = {
		name = rahen.24.a
		add_prestige = 15
		add_years_of_income = 2
	}

	option = {
		name = rahen.24.b
		trigger = {
			pilgrims_road_area = {
				has_province_modifier = R51_pilgrims_road
			}
		}
		add_prestige = 15
		add_years_of_income = 4
		add_country_modifier = {
			name = pilgrim_piety
			duration = 1825
		}

	}
}

country_event = {
	id = rahen.99
	title = rahen.99.t
	desc = rahen.99.desc
	picture = HIGH_TEMPLE_CITY_eventPicture
	
	is_triggered_only = yes
	hidden = yes

	trigger = {
		owns = 4411
		is_year = 1480
		NOT = { has_global_flag = suhan_reformation_over }
		OR = {
			NOT = { 4411 = { check_variable = { which = suhanProgress value = 2 } } }
			had_global_flag = {
				flag = suhan_1
				days = 3650
			}
			had_global_flag = {
				flag = suhan_2
				days = 3650
			}
			had_global_flag = {
				flag = suhan_3
				days = 3650
			}
			had_global_flag = {
				flag = suhan_4
				days = 3650
			}
		}
	}

	#Suhan and the Hall of Endless Debate
	option = {
		name = rahen.99.a
		ai_chance = { factor = 100 }
		trigger = { NOT = { has_global_flag = suhan_goes_sicko_mode } }

		if = {
			limit = { 4435 = { religion = high_philosophy } }
			4435 = { province_event = { id = rahen.5 } }
		}
		else = {
			rahen_superregion = {
				type = random
				amount = 1
				limit = { religion = high_philosophy region = rakhadesh_region is_island = no }
				province_event = { id = rahen.5 random = 180 }
			}
		}
	}
	#The Suhanic Reformation
	option = {
		name = rahen.99.b
		ai_chance = { factor = 100 }
		trigger = {
			4411 = {
				check_variable = { which = suhanProgress value = 1 }
				NOT = { check_variable = { which = suhanProgress value = 2 } }
			}
		}

		if = {
			limit = { 4435 = { religion = high_philosophy } }
			random_list = {
				2 = { 4435 = { province_event = { id = rahen.6 } } }
				1 = {
					rakhadesh_region = {
						type = random
						amount = 1
						limit = { is_valid_for_suhan_reformation = yes }
						province_event = { id = rahen.6 }
					}
				}
			}
		}
		else = {
			rakhadesh_region = {
				type = random
				amount = 1
				limit = { is_valid_for_suhan_reformation = yes }
				province_event = { id = rahen.6 }
			}
		}
	}
	#Suhan moves to Rahen Coast
	option = {
		name = rahen.99.c
		ai_chance = { factor = 100 }
		trigger = {
			4411 = {
				check_variable = { which = suhanProgress value = 2 }
				NOT = { check_variable = { which = suhanProgress value = 3 } }
			}
		}

		if = {
			limit = {
				R38 = { ai = no }
			}
			4420 = { province_event = { id = rahen.7 } }
		}
		else = {
			rahen_coast_region = {
				type = random
				amount = 1
				limit = { is_valid_for_suhan_reformation = yes }
				province_event = { id = rahen.7 }
			}
		}
	}
	#Suhan moves to Dhujat
	option = {
		name = rahen.99.d
		ai_chance = { factor = 100 }
		trigger = {
			4411 = {
				check_variable = { which = suhanProgress value = 3 }
				NOT = { check_variable = { which = suhanProgress value = 4 } }
			}
		}

		dhujat_region = {
			type = random
			amount = 1
			limit = { is_valid_for_suhan_reformation = yes }
			province_event = { id = rahen.8 }
		}
	}
	#Suhan moves to Bomdan
	option = {
		name = rahen.99.e
		ai_chance = { factor = 100 }
		trigger = {
			4411 = {
				check_variable = { which = suhanProgress value = 4 }
				NOT = { check_variable = { which = suhanProgress value = 5 } }
			}
		}

		dhujat_region = {
			type = random
			amount = 1
			limit = { is_valid_for_suhan_reformation = yes }
			province_event = { id = rahen.9 }
		}
	}
	#End of Suhanic Reformation - the boring end
	option = {
		name = rahen.99.f
		ai_chance = { factor = 100 }
		trigger = {
			4411 = {
				check_variable = { which = suhanProgress value = 5 }
				NOT = { check_variable = { which = suhanProgress value = 6 } }
			}
			had_global_flag = {
				flag = suhan_4
				days = 3650
			}
		}
		if = {
			limit = { has_saved_global_event_target = suhan_center }
			event_target:suhan_center = { province_event = { id = rahen.10 } }
		}
		else = {
			4411 = { province_event = { id = rahen.10 } }
		}
	}
}