
########################################
# Events for Theocracy
#
# written by Johan Andersson
########################################

# Anbennar Changes
# added NOT = { has_adventurer_reform = yes } to theocracy.1, adventurer ver in Adventurers.txt

namespace = theocracy

country_event = {
	id = theocracy.1
	title = theocracy.1.t
	# desc = {
		desc = theocracy.1.desc
	#	trigger = {
	#		OR = {
	#			NOT = { has_country_flag = KOL_secondogeniture_of_BAV }
	#			is_subject = no
	#			overlord = {
	#				OR = {
	#					NOT = { government = monarchy }
	#					NOT = { has_government_attribute = heir }
	#					# AND = {
	#					# 	NOT = { tag = BAV }
	#					# 	NOT = { was_tag = BAV }
	#					# }
	#				}
	#			}
	#		}
	#	}
	# }
	# desc = {
	#	desc = theocracy.1.desc.KOL_secondogeniture_of_BAV
	#	trigger = {
	#		has_country_flag = KOL_secondogeniture_of_BAV
	#		NOT = {
	#			OR = {
	#				is_subject = no
	#				overlord = {
	#					OR = {
	#						NOT = { government = monarchy }
	#						NOT = { has_government_attribute = heir }
	#						# AND = {
	#						# 	NOT = { tag = BAV }
	#						# 	NOT = { was_tag = BAV }
	#						# }
	#					}
	#				}
	#			}
	#		}
	#	}
	# }
	picture = RELIGION_eventPicture

	is_triggered_only = yes

	trigger = {
		NOT = { has_reform = papacy_reform }
		NOT = { has_country_flag = in_theocracy_heir_selection }
		NOT = { has_country_flag = is_selecting_stat_bonus_for_heir }
		has_government_attribute = heir

		# Anbennar
		NOT = {has_country_modifier = A77_decade_of_warring_blades} 
		NOT = { has_adventurer_reform = yes }
		NOT = { has_reform = magocracy_reform }
		NOT = { has_reform = magisterium_reform }
		NOT = { has_reform = verkal_ozovar_magocracy }
		NOT = { has_reform = tehanek_magocracy_reform }
		NOT = { has_reform = chaingrasper_dakocracy_reform }
		NOT = { has_reform = chaingrasper_early_dakocracy_reform }
		NOT = { has_reform = arakeprun_magocracy }
		NOT = { 
			OR = {
				has_reform = wulin
				has_reform = xiaken
				has_reform = indep_xiaken
				has_reform = one_xia
			}
		}
		NOT = { has_reform = tagharoghi_reform }
		NOT = { has_estate = estate_acolytes }	#they have their own evil thing
		NOT = { has_reform = kar_ankash_theocracy_reform }	#They select heirs through shatteredcrown.44
		NOT = { has_reform = balrijin_sage_council_reform }	#They select heirs through flavour_balrijin.30
		OR = { #They select heirs through theocracy.2
			NOT = { has_reform = oracular_order_reform }
			NOT = { has_country_flag = has_caste_estates }
		}
		NOT = { has_country_flag = lich_ruler_has_phylactery }

		NOT = { #Bosancovac
			AND = {
				OR = {
					tag = G33
					was_tag = G33
				}
				OR = {
					has_country_flag = bosancovac_patrician_succession
				}
			}
		}
		NOT = { has_reform = effelai_alianaiarat_reform } #they select heirs through effelai_worship.500
		NOT = { has_reform = irkorzik_dunesworn_council_reform } #They select heirs through irkorzik_flavour.8
	}

	immediate = {
		hidden_effect = {
			set_country_flag = in_theocracy_heir_selection

			# if = {
			# 	limit = {
			# 		has_country_flag = KOL_secondogeniture_of_BAV
			# 		OR = {
			# 			is_subject = no
			# 			overlord = {
			# 				OR = {
			# 					NOT = { government = monarchy }
			# 					NOT = { has_government_attribute = heir }
			# 					AND = {
			# 						NOT = { tag = BAV }
			# 						NOT = { was_tag = BAV }
			# 					}
			# 				}
			# 			}
			# 		}
			# 	}
			# 	clr_country_flag = KOL_secondogeniture_of_BAV
			# }
			# else_if = {
			# 	limit = {
			# 		has_country_flag = KOL_secondogeniture_of_BAV
			# 	}
			# 	overlord = { save_event_target_as = probably_bavaria }
			# }
			
			clr_country_flag = theo_local_noble_flag
			clr_country_flag = theo_foreign_noble_flag
			clr_country_flag = theo_merchants_son_flag
			clr_country_flag = theo_talented_theologian_flag
			clr_country_flag = theo_local_preacher_flag
			clr_country_flag = theo_papal_protege_flag
			clr_country_flag = theo_imam_khatib_flag
			clr_country_flag = theo_influential_reformer_flag
			
			#Local Noble,etc:
			if = {
				limit = {
					has_estate = estate_nobles
					any_owned_province = {
						is_capital = no
						is_state = yes
					}
				}
				random_owned_province = {
					limit = { 
						is_capital = no
						is_state = yes
					}
					save_event_target_as = noble_province
				}
			}
			# else_if = {
			# 	limit = {
			# 		OR = {
			# 			has_estate = estate_maratha
			# 			has_estate = estate_rajput
			# 		}
			# 		any_owned_province = {
			# 			is_capital = no
			# 			is_state = yes
			# 			religion = hinduism
			# 		}
			# 		religion = hinduism
			# 	}
			# 	random_owned_province = {
			# 		limit = { 
			# 			is_capital = no
			# 			is_state = yes
			# 			religion = hinduism
			# 		}
			# 		save_event_target_as = noble_province
			# 	}
			# }
			if = {
				limit = {
					has_estate = estate_burghers
					any_owned_province = {
						is_capital = no
						is_state = yes
					}
				}
				random_owned_province = {
					limit = { 
						is_capital = no
						is_state = yes
					}
					save_event_target_as = burgher_province
				}
			}
			# else_if = {
			# 	limit = {
			# 		has_estate = estate_vaisyas
			# 		religion = hinduism
			# 		any_owned_province = {
			# 			is_capital = no
			# 			is_state = yes
			# 			religion = hinduism
			# 		}
			# 	}
			# 	random_owned_province = {
			# 		limit = { 
			# 			is_capital = no
			# 			is_state = yes
			# 			religion = hinduism
			# 		}
			# 		save_event_target_as = burgher_province
			# 	}
			# }
			if = {
				limit = {
					has_estate = estate_church
					any_owned_province = {
						is_capital = no
						is_state = yes
					}
				}
				random_owned_province = {
					limit = { 
						is_capital = no
						is_state = yes
					}
					save_event_target_as = church_province
				}
			}
			# else_if = {
			# 	limit = {
			# 		has_estate = estate_brahmins
			# 		religion = hinduism
			# 		any_owned_province = {
			# 			is_capital = no
			# 			is_state = yes
			# 			religion = hinduism
			# 		}
			# 	}
			# 	random_owned_province = {
			# 		limit = { 
			# 			is_capital = no
			# 			is_state = yes
			# 			religion = hinduism
			# 		}
			# 		save_event_target_as = church_province
			# 	}
			# }
			#Papal Protoge:
			random_country = {
				limit = {
					# OR = {
					#	tag = PAP
					#	culture_group = latin
					# }
					tag = Z97 # Anbennar
				}
				save_event_target_as = papal_protoge_country
			}
			
			
			# Anbennar
			random = {
				chance = 50
				set_country_flag = anb_female_heir
		}
	}
	}
	
	# Anbennar 
	after = {
		clr_country_flag = anb_female_heir
	}

	option = {
		name = theocracy.1.a		# A Local Noble
		trigger = {
			# NOT = { has_country_flag = KOL_secondogeniture_of_BAV }
			# Anbennar
			NOT = {
				OR = {
					has_country_modifier = elven_administration
					has_country_modifier = gnomish_administration
					has_country_modifier = dwarven_administration
					has_country_flag = bosancovac_patrician_succession
				}
			}
		}
		if = {
			limit = {
				has_estate = estate_nobles
			}
			add_estate_loyalty = {
				estate = estate_nobles
				loyalty = 15
			}
		}
		# else_if = {
		# 	limit = {
		# 		has_estate = estate_maratha
		# 		religion = hinduism
		# 	}
		# 	add_estate_loyalty = {
		# 		estate = estate_maratha
		# 		loyalty = 15
		# 	}
		# }
		# else_if = {
		# 	limit = {
		# 		has_estate = estate_rajput
		# 		religion = hinduism
		# 	}
		# 	add_estate_loyalty = {
		# 		estate = estate_rajput
		# 		loyalty = 15
		# 	}
		# }
		if = {
			limit = {
				has_estate = estate_church
			}
			add_estate_loyalty = {
				estate = estate_church
				loyalty = -15
			}
		}
		# else_if = {
		# 	limit = {
		# 		has_estate = estate_brahmins
		# 		religion = hinduism
		# 	}
		# 	add_estate_loyalty = {
		# 		estate = estate_brahmins
		# 		loyalty = -15
		# 	}
		# }
		set_country_flag = theo_local_noble_flag # USED IN DEVOTION.TXT
		if = {
			limit = { has_government_attribute = can_see_theocratic_heir_stats }
			if = {
				limit = {
					has_saved_event_target = noble_province
					NOT = {
						OR = {
						has_global_modifier_value = {
							which = female_advisor_chance
							value = 1
						}
							# Anbennar - Equal gender religions + rolled female heir
							AND = {
								OR = {
									religion = corinite
									religion = ravelian
									religion = the_thought	#its secular, after all!
									religion = elven_forebears
									religion = regent_court
								}
								has_country_flag = anb_female_heir
							}
							# Anbennar - Female priests by culture or religion
							culture_group = gnollish
							culture_group = harpy
						}
					}
				}
				define_heir = {
					age = 35
					culture = event_target:noble_province
				}
			}
			else_if = {
				limit = {
					has_saved_event_target = noble_province
					OR = {
					has_global_modifier_value = {
						which = female_advisor_chance
						value = 1
					}
						# Anbennar - Equal gender religions + rolled female heir
						AND = {
							OR = {
								religion = corinite
								religion = ravelian
								religion = the_thought	#its secular, after all!
								religion = elven_forebears
								religion = regent_court
							}
							has_country_flag = anb_female_heir
						}
						# Anbennar - Female priests by culture or religion
						culture_group = gnollish
						culture_group = harpy
					}
				}
				define_heir = {
					age = 35
					female = yes
					culture = event_target:noble_province
				}
			}
			else_if = {
				limit = {
					has_saved_event_target = noble_province
					OR = {
					has_global_modifier_value = {
						which = female_advisor_chance
						value = 1
					}
						# Anbennar - Equal gender religions + rolled female heir
						AND = {
							OR = {
								religion = corinite
								religion = ravelian
								religion = the_thought	#its secular, after all!
								religion = elven_forebears
								religion = regent_court
							}
							has_country_flag = anb_female_heir
						}
						# Anbennar - Female priests by culture or religion
						culture_group = gnollish
						culture_group = harpy
					}
				}
				define_heir = {
					age = 35
					female = yes
				}
			}
			else = {
				define_heir = {
					age = 35
				}
			}
		}
		else = {
			if = {
				limit = {
					has_saved_event_target = noble_province
					NOT = {
						OR = {
						has_global_modifier_value = {
							which = female_advisor_chance
							value = 1
						}
							# Anbennar - Equal gender religions + rolled female heir
							AND = {
								OR = {
									religion = corinite
									religion = ravelian
									religion = the_thought	#its secular, after all!
									religion = elven_forebears
									religion = regent_court
								}
								has_country_flag = anb_female_heir
							}
							# Anbennar - Female priests by culture or religion
							culture_group = gnollish
							culture_group = harpy
						}
					}
				}
				define_heir = {
					age = 35
					hidden = yes
					culture = event_target:noble_province
				}
			}
			else_if = {
				limit = {
					has_saved_event_target = noble_province
					OR = {
					has_global_modifier_value = {
						which = female_advisor_chance
						value = 1
					}
						# Anbennar - Equal gender religions + rolled female heir
						AND = {
							OR = {
								religion = corinite
								religion = ravelian
								religion = the_thought	#its secular, after all!
								religion = elven_forebears
								religion = regent_court
							}
							has_country_flag = anb_female_heir
						}
						# Anbennar - Female priests by culture or religion
						culture_group = gnollish
						culture_group = harpy
					}
				}
				define_heir = {
					age = 35
					hidden = yes
					female = yes
					culture = event_target:noble_province
				}
			}
			else_if = {
				limit = {
					has_saved_event_target = noble_province
					OR = {
					has_global_modifier_value = {
						which = female_advisor_chance
						value = 1
					}
						# Anbennar - Equal gender religions + rolled female heir
						AND = {
							OR = {
								religion = corinite
								religion = ravelian
								religion = the_thought	#its secular, after all!
								religion = elven_forebears
								religion = regent_court
							}
							has_country_flag = anb_female_heir
						}
						# Anbennar - Female priests by culture or religion
						culture_group = gnollish
						culture_group = harpy
					}
				}
				define_heir = {
					age = 35
					hidden = yes
					female = yes
				}
			}
			else = {
				define_heir = {
					age = 35
					hidden = yes
				}
			}
		}
		add_devotion = -5
		add_prestige = 10
		clr_country_flag = in_theocracy_heir_selection
		custom_tooltip = theocracy.1.tt
		if = {
			limit = {
				has_government_attribute = theocratic_monarchy_mechanic
			}
			custom_tooltip = monarchistic_direction_tt
			set_heir_flag = monarchistic_heir
			change_statists_vs_orangists = 0.15
		}
	}
	option = {
		name = theocracy.1.b		# A Foreign Noble
		trigger = {
			# NOT = { has_country_flag = KOL_secondogeniture_of_BAV }
			any_neighbor_country = {
				government = monarchy
				has_regency = no
				religion = ROOT
			}
			# Anbennar
			NOT = {
				OR = {
					has_country_modifier = elven_administration
					has_country_modifier = gnomish_administration
					has_country_modifier = dwarven_administration
					has_country_flag = bosancovac_patrician_succession
				}
			}
		}
		if = {
			limit = {
				has_estate = estate_nobles
			}
			add_estate_loyalty = {
				estate = estate_nobles
				loyalty = 10
			}
		}
		# else_if = {
		# 	limit = {
		# 		has_estate = estate_maratha
		# 		religion = hinduism
		# 	}
		# 	add_estate_loyalty = {
		# 		estate = estate_maratha
		# 		loyalty = 10
		# 	}
		# }
		# else_if = {
		# 	limit = {
		# 		has_estate = estate_rajput
		# 		religion = hinduism
		# 	}
		# 	add_estate_loyalty = {
		# 		estate = estate_rajput
		# 		loyalty = 10
		# 	}
		# }
		if = {
			limit = {
				has_estate = estate_church
			}
			add_estate_loyalty = {
				estate = estate_church
				loyalty = -10
			}
		}
		# else_if = {
		# 	limit = {
		# 		has_estate = estate_brahmins
		# 		religion = hinduism
		# 	}
		# 	add_estate_loyalty = {
		# 		estate = estate_brahmins
		# 		loyalty = -10
		# 	}
		# }		
		set_country_flag = theo_foreign_noble_flag # USED IN DEVOTION.TXT

		random_neighbor_country = { 
			limit = {
				government = monarchy
				has_regency = no
				religion = ROOT
			}
			ROOT = {
				if = {
					limit = { has_government_attribute = can_see_theocratic_heir_stats }
					if = {
						limit = {
							NOT = {
								OR = {
								has_global_modifier_value = {
									which = female_advisor_chance
									value = 1
								}
									# Anbennar - Equal gender religions + rolled female heir
									AND = {
										OR = {
											religion = corinite
											religion = ravelian
											religion = the_thought	#its secular, after all!
											religion = elven_forebears
											religion = regent_court
										}
										has_country_flag = anb_female_heir
									}
									# Anbennar - Female priests by culture or religion
									culture_group = gnollish
									culture_group = harpy
								}
							}
						}
						define_heir = { 
							dynasty = PREV 
							age = 35
							culture = PREV
						} 
					}
					else = {
						define_heir = { 
							dynasty = PREV 
							age = 35
							culture = PREV
							female = yes
						} 
					}
				}
				else = {
					if = {
						limit = {
							NOT = {
								OR = {
								has_global_modifier_value = {
									which = female_advisor_chance
									value = 1
								}
									# Anbennar - Equal gender religions + rolled female heir
									AND = {
										OR = {
											religion = corinite
											religion = ravelian
											religion = the_thought	#its secular, after all!
											religion = elven_forebears
											religion = regent_court
										}
										has_country_flag = anb_female_heir
									}
									# Anbennar - Female priests by culture or religion
									culture_group = gnollish
									culture_group = harpy
								}
							}
						}
						define_heir = { 
							dynasty = PREV 
							age = 35
							culture = PREV
							hidden = yes
						} 
					}
					else = {
						define_heir = { 
							dynasty = PREV 
							age = 35
							culture = PREV
							female = yes
							hidden = yes
						} 
					}
				}
			}
			add_opinion = { who = ROOT modifier = opinion_theocracy_noble }
		}
		clr_country_flag = in_theocracy_heir_selection
		custom_tooltip = theocracy.1.tt
		if = {
			limit = {
				has_government_attribute = theocratic_monarchy_mechanic
			}
			custom_tooltip = monarchistic_direction_tt
			set_heir_flag = monarchistic_heir
			change_statists_vs_orangists = 0.15
		}
	}
	option = {
		name = theocracy.1.c		# A Merchant's Son
		trigger = {
			# NOT = { has_country_flag = KOL_secondogeniture_of_BAV }
			# Anbennar
			NOT = {
				OR = {
					has_country_modifier = elven_administration
					has_country_modifier = gnomish_administration
					has_country_modifier = dwarven_administration
					has_country_flag = bosancovac_patrician_succession
				}
			}
		}
		if = {
			limit = {
				has_estate = estate_burghers
			}
			add_estate_loyalty = {
				estate = estate_burghers
				loyalty = 15
			}
		}
		# else_if = {
		#	limit = {
		#		has_estate = estate_vaisyas
		#		religion = hinduism
		#	}
		#	add_estate_loyalty = {
		#		estate = estate_vaisyas
		#		loyalty = 15
		#	}
		# }
		if = {
			limit = {
				has_estate = estate_church
			}
			add_estate_loyalty = {
				estate = estate_church
				loyalty = -15
			}
		}
		# else_if = {
		#	limit = {
		#		has_estate = estate_brahmins
		#		religion = hinduism
		#	}
		#	add_estate_loyalty = {
		#		estate = estate_brahmins
		#		loyalty = -15
		#	}
		# }
		set_country_flag = theo_merchants_son_flag # USED IN DEVOTION.TXT
		
		if = {
			limit = { has_government_attribute = can_see_theocratic_heir_stats }
			if = {
				limit = {
					has_saved_event_target = burgher_province
					NOT = {
						OR = {
						has_global_modifier_value = {
							which = female_advisor_chance
							value = 1
						}
							# Anbennar - Equal gender religions + rolled female heir
							AND = {
								OR = {
									religion = corinite
									religion = ravelian
									religion = the_thought	#its secular, after all!
									religion = elven_forebears
									religion = regent_court
								}
								has_country_flag = anb_female_heir
							}
							# Anbennar - Female priests by culture or religion
							culture_group = gnollish
							culture_group = harpy
						}
					}
				}
				define_heir = {
					age = 35
					culture = event_target:burgher_province
				}
			}
			else_if = {
				limit = {
					has_saved_event_target = burgher_province
					OR = {
					has_global_modifier_value = {
						which = female_advisor_chance
						value = 1
					}
						# Anbennar - Equal gender religions + rolled female heir
						AND = {
							OR = {
								religion = corinite
								religion = ravelian
								religion = the_thought	#its secular, after all!
								religion = elven_forebears
								religion = regent_court
							}
							has_country_flag = anb_female_heir
						}
						# Anbennar - Female priests by culture or religion
						culture_group = gnollish
						culture_group = harpy
					}
				}
				define_heir = {
					age = 35
					female = yes
					culture = event_target:burgher_province
				}
			}
			else_if = {
				limit = {
					OR = {
					has_global_modifier_value = {
						which = female_advisor_chance
						value = 1
					}
						# Anbennar - Equal gender religions + rolled female heir
						AND = {
							OR = {
								religion = corinite
								religion = ravelian
								religion = the_thought	#its secular, after all!
								religion = elven_forebears
								religion = regent_court
							}
							has_country_flag = anb_female_heir
						}
						# Anbennar - Female priests by culture or religion
						culture_group = gnollish
						culture_group = harpy
					}
				}
				define_heir = {
					age = 35
					female = yes
				}
			}
			else = {
				define_heir = {
					age = 35
				}
			}
		}
		else = {
			if = {
				limit = {
					has_saved_event_target = burgher_province
					NOT = {
						OR = {
						has_global_modifier_value = {
							which = female_advisor_chance
							value = 1
						}
							# Anbennar - Equal gender religions + rolled female heir
							AND = {
								OR = {
									religion = corinite
									religion = ravelian
									religion = the_thought	#its secular, after all!
									religion = elven_forebears
									religion = regent_court
								}
								has_country_flag = anb_female_heir
							}
							# Anbennar - Female priests by culture or religion
							culture_group = gnollish
							culture_group = harpy
						}
					}
				}
				define_heir = {
					age = 35
					hidden = yes
					culture = event_target:burgher_province
				}
			}
			else_if = {
				limit = {
					has_saved_event_target = burgher_province
					OR = {
					has_global_modifier_value = {
						which = female_advisor_chance
						value = 1
					}
						# Anbennar - Equal gender religions + rolled female heir
						AND = {
							OR = {
								religion = corinite
								religion = ravelian
								religion = the_thought	#its secular, after all!
								religion = elven_forebears
								religion = regent_court
							}
							has_country_flag = anb_female_heir
						}
						# Anbennar - Female priests by culture or religion
						culture_group = gnollish
						culture_group = harpy
					}
				}
				define_heir = {
					age = 35
					hidden = yes
					female = yes
					culture = event_target:burgher_province
				}
			}
			else_if = {
				limit = {
					OR = {
					has_global_modifier_value = {
						which = female_advisor_chance
						value = 1
					}
						# Anbennar - Equal gender religions + rolled female heir
						AND = {
							OR = {
								religion = corinite
								religion = ravelian
								religion = the_thought	#its secular, after all!
								religion = elven_forebears
								religion = regent_court
							}
							has_country_flag = anb_female_heir
						}
						# Anbennar - Female priests by culture or religion
						culture_group = gnollish
						culture_group = harpy
					}
				}
				define_heir = {
					age = 35
					female = yes
					hidden = yes
				}
			}
			else = {
				define_heir = {
					age = 35
					hidden = yes
				}
			}
		}
		add_years_of_income = 0.35
		add_devotion = -5
		clr_country_flag = in_theocracy_heir_selection
		custom_tooltip = theocracy.1.tt
	}

	option = {
		name = theocracy.1.e		# A Talented Theologian
		trigger = {
			# NOT = { has_country_flag = KOL_secondogeniture_of_BAV }
			# Anbennar
			NOT = {
				OR = {
					has_country_modifier = elven_administration
					has_country_modifier = gnomish_administration
					has_country_modifier = dwarven_administration
					has_country_flag = bosancovac_patrician_succession
				}
			}
		}
		if = {
			limit = {
				has_estate = estate_church
			}
			add_estate_loyalty = {
				estate = estate_church
				loyalty = 15
			}
		}
		# else_if = {
		#	limit = {
		#		has_estate = estate_brahmins
		#		religion = hinduism
		#	}
		#	add_estate_loyalty = {
		#		estate = estate_brahmins
		#		loyalty = 15
		#	}
		# }
		if = {
			limit = {
				has_estate = estate_burghers
			}
			add_estate_loyalty = {
				estate = estate_burghers
				loyalty = -15
			}
		}
		# else_if = {
		#	limit = {
		#		has_estate = estate_vaisyas
		#		religion = hinduism
		#	}
		#	add_estate_loyalty = {
		#		estate = estate_vaisyas
		#		loyalty = -15
		#	}
		# }
		set_country_flag = theo_talented_theologian_flag # USED IN DEVOTION.TXT
		if = {
			limit = { has_government_attribute = can_see_theocratic_heir_stats }
			if = {
				limit = {
					has_saved_event_target = church_province
					NOT = {
						OR = {
						has_global_modifier_value = {
							which = female_advisor_chance
							value = 1
						}
							# Anbennar - Equal gender religions + rolled female heir
							AND = {
								OR = {
									religion = corinite
									religion = ravelian
									religion = the_thought	#its secular, after all!
									religion = elven_forebears
									religion = regent_court
								}
								has_country_flag = anb_female_heir
							}
							# Anbennar - Female priests by culture or religion
							culture_group = gnollish
							culture_group = harpy
						}
					}
				}
				define_heir = {
					age = 35
					culture = event_target:church_province
				}
			}
			else_if = {
				limit = {
					has_saved_event_target = church_province
					OR = {
					has_global_modifier_value = {
						which = female_advisor_chance
						value = 1
					}
						# Anbennar - Equal gender religions + rolled female heir
						AND = {
							OR = {
								religion = corinite
								religion = ravelian
								religion = the_thought	#its secular, after all!
								religion = elven_forebears
								religion = regent_court
							}
							has_country_flag = anb_female_heir
						}
						# Anbennar - Female priests by culture or religion
						culture_group = gnollish
						culture_group = harpy
					}
				}
				define_heir = {
					age = 35
					female = yes
					culture = event_target:church_province
				}
			}
			else_if = {
				limit = {
					OR = {
					has_global_modifier_value = {
						which = female_advisor_chance
						value = 1
					}
						# Anbennar - Equal gender religions + rolled female heir
						AND = {
							OR = {
								religion = corinite
								religion = ravelian
								religion = the_thought	#its secular, after all!
								religion = elven_forebears
								religion = regent_court
							}
							has_country_flag = anb_female_heir
						}
						# Anbennar - Female priests by culture or religion
						culture_group = gnollish
						culture_group = harpy
					}
				}
				define_heir = {
					age = 35
					female = yes
				}
			}
			else = {
				define_heir = {
					age = 35
				}
			}
		}
		else = {
			if = {
				limit = {
					has_saved_event_target = church_province
					NOT = {
						OR = {
						has_global_modifier_value = {
							which = female_advisor_chance
							value = 1
						}
							# Anbennar - Equal gender religions + rolled female heir
							AND = {
								OR = {
									religion = corinite
									religion = ravelian
									religion = the_thought	#its secular, after all!
									religion = elven_forebears
									religion = regent_court
								}
								has_country_flag = anb_female_heir
							}
							# Anbennar - Female priests by culture or religion
							culture_group = gnollish
							culture_group = harpy
						}
					}
				}
				define_heir = {
					age = 35
					hidden = yes
					culture = event_target:church_province
				}
			}
			else_if = {
				limit = {
					has_saved_event_target = church_province
					has_global_modifier_value = {
						which = female_advisor_chance
						value = 1
					}
				}
				define_heir = {
					age = 35
					hidden = yes
					female = yes
					culture = event_target:church_province
				}
			}
			else_if = {
				limit = {
					OR = {
					has_global_modifier_value = {
						which = female_advisor_chance
						value = 1
					}
						# Anbennar - Equal gender religions + rolled female heir
						AND = {
							OR = {
								religion = corinite
								religion = ravelian
								religion = the_thought	#its secular, after all!
								religion = elven_forebears
								religion = regent_court
							}
							has_country_flag = anb_female_heir
						}
						# Anbennar - Female priests by culture or religion
						culture_group = gnollish
						culture_group = harpy
					}
				}
				define_heir = {
					age = 35
					female = yes
					hidden = yes
				}
			}
			else = {
				define_heir = {
					age = 35
					hidden = yes
				}
			}
		}
		add_devotion = 5
		clr_country_flag = in_theocracy_heir_selection
		custom_tooltip = theocracy.1.tt
		if = {
			limit = {
				has_government_attribute = theocratic_monarchy_mechanic
			}
			custom_tooltip = theocratic_direction_tt
			set_heir_flag = theocratic_heir
			change_statists_vs_orangists = -0.15
		}
	}
	option = {
		name = theocracy.1.f		# A Local Preacher
		trigger = {
			# NOT = { has_country_flag = KOL_secondogeniture_of_BAV }
			# NOT = {
			#	religion_group = muslim
			# }
			# Anbennar
			NOT = {
				OR = {
					has_country_modifier = elven_administration
					has_country_modifier = gnomish_administration
					has_country_modifier = dwarven_administration
					has_country_flag = bosancovac_patrician_succession
				}
			}
		}
		if = {
			limit = {
				has_estate = estate_church
			}
			add_estate_loyalty = {
				estate = estate_church
				loyalty = 15
			}
		}
		# else_if = {
		# 	limit = {
		# 		has_estate = estate_brahmins
		# 		religion = hinduism
		# 	}
		# 	add_estate_loyalty = {
		# 		estate = estate_brahmins
		# 		loyalty = 15
		# 	}
		# }
		if = {
			limit = {
				has_estate = estate_nobles
			}
			add_estate_loyalty = {
				estate = estate_nobles
				loyalty = -15
			}
		}
		# else_if = {
		# 	limit = {
		# 		has_estate = estate_maratha
		# 		religion = hinduism
		# 	}
		# 	add_estate_loyalty = {
		# 		estate = estate_maratha
		# 		loyalty = -15
		# 	}
		# }
		# else_if = {
		# 	limit = {
		# 		has_estate = estate_rajput
		# 		religion = hinduism
		# 	}
		# 	add_estate_loyalty = {
		# 		estate = estate_rajput
		# 		loyalty = -15
		# 	}
		# }
		set_country_flag = theo_local_preacher_flag # USED IN DEVOTION.TXT
		
		if = {
			limit = { has_government_attribute = can_see_theocratic_heir_stats }
			if = {
				limit = {
					has_saved_event_target = church_province
					NOT = {
						OR = {
						has_global_modifier_value = {
							which = female_advisor_chance
							value = 1
						}
							# Anbennar - Equal gender religions + rolled female heir
							AND = {
								OR = {
									religion = corinite
									religion = ravelian
									religion = the_thought	#its secular, after all!
									religion = elven_forebears
									religion = regent_court
								}
								has_country_flag = anb_female_heir
							}
							# Anbennar - Female priests by culture or religion
							culture_group = gnollish
							culture_group = harpy
						}
					}
				}
				define_heir = {
					age = 35
					culture = event_target:church_province
				}
			}
			else_if = {
				limit = {
					has_saved_event_target = church_province
					OR = {
					has_global_modifier_value = {
						which = female_advisor_chance
						value = 1
					}
						# Anbennar - Equal gender religions + rolled female heir
						AND = {
							OR = {
								religion = corinite
								religion = ravelian
								religion = the_thought	#its secular, after all!
								religion = elven_forebears
								religion = regent_court
							}
							has_country_flag = anb_female_heir
						}
						# Anbennar - Female priests by culture or religion
						culture_group = gnollish
						culture_group = harpy
					}
				}
				define_heir = {
					age = 35
					female = yes
					culture = event_target:church_province
				}
			}
			else_if = {
				limit = {
					OR = {
					has_global_modifier_value = {
						which = female_advisor_chance
						value = 1
					}
						# Anbennar - Equal gender religions + rolled female heir
						AND = {
							OR = {
								religion = corinite
								religion = ravelian
								religion = the_thought	#its secular, after all!
								religion = elven_forebears
								religion = regent_court
							}
							has_country_flag = anb_female_heir
						}
						# Anbennar - Female priests by culture or religion
						culture_group = gnollish
						culture_group = harpy
					}
				}
				define_heir = {
					age = 35
					female = yes
				}
			}
			else = {
				define_heir = {
					age = 35
				}
			}
		}
		else = {
			if = {
				limit = {
					has_saved_event_target = church_province
					NOT = {
						OR = {
						has_global_modifier_value = {
							which = female_advisor_chance
							value = 1
						}
							# Anbennar - Equal gender religions + rolled female heir
							AND = {
								OR = {
									religion = corinite
									religion = ravelian
									religion = the_thought	#its secular, after all!
									religion = elven_forebears
									religion = regent_court
								}
								has_country_flag = anb_female_heir
							}
							# Anbennar - Female priests by culture or religion
							culture_group = gnollish
							culture_group = harpy
						}
					}
				}
				define_heir = {
					age = 35
					hidden = yes
					culture = event_target:church_province
				}
			}
			else_if = {
				limit = {
					has_saved_event_target = church_province
					OR = {
					has_global_modifier_value = {
						which = female_advisor_chance
						value = 1
					}
						# Anbennar - Equal gender religions + rolled female heir
						AND = {
							OR = {
								religion = corinite
								religion = ravelian
								religion = the_thought	#its secular, after all!
								religion = elven_forebears
								religion = regent_court
							}
							has_country_flag = anb_female_heir
						}
						# Anbennar - Female priests by culture or religion
						culture_group = gnollish
						culture_group = harpy
					}
				}
				define_heir = {
					age = 35
					hidden = yes
					female = yes
					culture = event_target:church_province
				}
			}
			else_if = {
				limit = {
					OR = {
					has_global_modifier_value = {
						which = female_advisor_chance
						value = 1
					}
						# Anbennar - Equal gender religions + rolled female heir
						AND = {
							OR = {
								religion = corinite
								religion = ravelian
								religion = the_thought	#its secular, after all!
								religion = elven_forebears
								religion = regent_court
							}
							has_country_flag = anb_female_heir
						}
						# Anbennar - Female priests by culture or religion
						culture_group = gnollish
						culture_group = harpy
					}
				}
				define_heir = {
					age = 35
					female = yes
					hidden = yes
				}
			}
			else = {
				define_heir = {
					age = 35
					hidden = yes
				}
			}
		}
		add_devotion = 10
		add_prestige = -5
		clr_country_flag = in_theocracy_heir_selection
		custom_tooltip = theocracy.1.tt
		if = {
			limit = {
				has_government_attribute = theocratic_monarchy_mechanic
			}
			custom_tooltip = theocratic_direction_tt
			set_heir_flag = theocratic_heir
			change_statists_vs_orangists = -0.15
		}
	}
	option = {
		name = theocracy.1.d		# A Papal Protege
		trigger = {
			# NOT = { has_country_flag = KOL_secondogeniture_of_BAV }
			# religion = catholic
			# Anbennar
			religion = ravelian
			NOT = {
				OR = {
					has_country_modifier = elven_administration
					has_country_modifier = gnomish_administration
					has_country_modifier = dwarven_administration
				}
			}
		}
		if = {
			limit = {
				has_estate = estate_church
			}
			add_estate_loyalty = {
				estate = estate_church
				loyalty = 15
			}
		}
		if = {
			limit = {
				has_estate = estate_nobles
			}
			add_estate_loyalty = {
				estate = estate_nobles
				loyalty = -10
			}
		}
		if = {
			limit = {
				has_estate = estate_burghers
			}
			add_estate_loyalty = {
				estate = estate_burghers
				loyalty = -10
			}
		}
		set_country_flag = theo_papal_protege_flag # USED IN DEVOTION.TXT
		
		if = {
			limit = { has_government_attribute = can_see_theocratic_heir_stats }
			if = {
				limit = {
					has_saved_event_target = papal_protoge_country
					NOT = {
						OR = {
						has_global_modifier_value = {
							which = female_advisor_chance
							value = 1
						}
							# Anbennar - Equal gender religions + rolled female heir
							AND = {
								OR = {
									religion = corinite
									religion = ravelian
									religion = the_thought	#its secular, after all!
									religion = elven_forebears
									religion = regent_court
								}
								has_country_flag = anb_female_heir
							}
							# Anbennar - Female priests by culture or religion
							culture_group = gnollish
							culture_group = harpy
						}
					}
				}
				define_heir = {
					age = 35
					culture = event_target:papal_protoge_country
				}
			}
			else_if = {
				limit = {
					has_saved_event_target = papal_protoge_country
					OR = {
					has_global_modifier_value = {
						which = female_advisor_chance
						value = 1
					}
						# Anbennar - Equal gender religions + rolled female heir
						AND = {
							OR = {
								religion = corinite
								religion = ravelian
								religion = the_thought	#its secular, after all!
								religion = elven_forebears
								religion = regent_court
							}
							has_country_flag = anb_female_heir
						}
						# Anbennar - Female priests by culture or religion
						culture_group = gnollish
						culture_group = harpy
					}
				}
				define_heir = {
					age = 35
					culture = event_target:papal_protoge_country
					female = yes
				}
			}
			else_if = {
				limit = {
					OR = {
					has_global_modifier_value = {
						which = female_advisor_chance
						value = 1
					}
						# Anbennar - Equal gender religions + rolled female heir
						AND = {
							OR = {
								religion = corinite
								religion = ravelian
								religion = the_thought	#its secular, after all!
								religion = elven_forebears
								religion = regent_court
							}
							has_country_flag = anb_female_heir
						}
						# Anbennar - Female priests by culture or religion
						culture_group = gnollish
						culture_group = harpy
					}
				}
				define_heir = {
					age = 35
					female = yes
				}
			}
			else = {
				define_heir = {
					age = 35
				}
			}
		}
		else = {
			if = {
				limit = {
					has_saved_event_target = papal_protoge_country
					NOT = {
						OR = {
						has_global_modifier_value = {
							which = female_advisor_chance
							value = 1
						}
							# Anbennar - Equal gender religions + rolled female heir
							AND = {
								OR = {
									religion = corinite
									religion = ravelian
									religion = the_thought	#its secular, after all!
									religion = elven_forebears
									religion = regent_court
								}
								has_country_flag = anb_female_heir
							}
							# Anbennar - Female priests by culture or religion
							culture_group = gnollish
							culture_group = harpy
						}
					}
				}
				define_heir = {
					age = 35
					culture = event_target:papal_protoge_country
					hidden = yes
				}
			}
			else_if = {
				limit = {
					has_saved_event_target = papal_protoge_country
					OR = {
					has_global_modifier_value = {
						which = female_advisor_chance
						value = 1
					}
						# Anbennar - Equal gender religions + rolled female heir
						AND = {
							OR = {
								religion = corinite
								religion = ravelian
								religion = the_thought	#its secular, after all!
								religion = elven_forebears
								religion = regent_court
							}
							has_country_flag = anb_female_heir
						}
						# Anbennar - Female priests by culture or religion
						culture_group = gnollish
						culture_group = harpy
					}
				}
				define_heir = {
					age = 35
					culture = event_target:papal_protoge_country
					female = yes
					hidden = yes
				}
			}
			else_if = {
				limit = {
					OR = {
					has_global_modifier_value = {
						which = female_advisor_chance
						value = 1
					}
						# Anbennar - Equal gender religions + rolled female heir
						AND = {
							OR = {
								religion = corinite
								religion = ravelian
								religion = the_thought	#its secular, after all!
								religion = elven_forebears
								religion = regent_court
							}
							has_country_flag = anb_female_heir
						}
						# Anbennar - Female priests by culture or religion
						culture_group = gnollish
						culture_group = harpy
					}
				}
				define_heir = {
					age = 35
					female = yes
					hidden = yes
				}
			}
			else = {
				define_heir = {
					age = 35
					hidden = yes
				}
			}
		}
		add_papal_influence = 10
		clr_country_flag = in_theocracy_heir_selection
		custom_tooltip = theocracy.1.tt
		if = {
			limit = {
				has_government_attribute = theocratic_monarchy_mechanic
			}
			custom_tooltip = theocratic_direction_tt
			set_heir_flag = theocratic_heir
			change_statists_vs_orangists = -0.15
		}
	}
	# option = {
	# 	name = theocracy.1.g		# A Local Imam Khatib
	# 	trigger = {
	# 		NOT = { has_country_flag = KOL_secondogeniture_of_BAV }
	# 		religion_group = muslim
	# 	}
	# 	set_country_flag = theo_imam_khatib_flag # USED IN DEVOTION.TXT
	# 	if = {
	# 		limit = {
	# 			has_estate = estate_church
	# 		}
	# 		add_estate_loyalty = {
	# 			estate = estate_church
	# 			loyalty = 15
	# 		}
	# 	}
	# 	if = {
	# 		limit = {
	# 			has_estate = estate_nobles
	# 		}
	# 		add_estate_loyalty = {
	# 			estate = estate_nobles
	# 			loyalty = -15
	# 		}
	# 	}		
		
	# 	if = {
	# 		limit = { has_government_attribute = can_see_theocratic_heir_stats }
	# 		if = {
	# 			limit = {
	# 				has_global_modifier_value = {
	# 					which = female_advisor_chance
	# 					value = 1
	# 				}
	# 			}
	# 			define_heir = {
	# 				age = 35
	# 				female = yes
	# 			}
	# 		}
	# 		else = {
	# 			define_heir = {
	# 				age = 35
	# 			}
	# 		}
	# 	}
	# 	else = {
	# 		if = {
	# 			limit = {
	# 				has_global_modifier_value = {
	# 					which = female_advisor_chance
	# 					value = 1
	# 				}
	# 			}
	# 			define_heir = {
	# 				age = 35
	# 				female = yes
	# 				hidden = yes
	# 			}
	# 		}
	# 		else = {
	# 			define_heir = {
	# 				age = 35
	# 				hidden = yes
	# 			}
	# 		}
	# 	}
	# 	add_devotion = 10
	# 	add_prestige = -10
	# 	clr_country_flag = in_theocracy_heir_selection
	# 	custom_tooltip = theocracy.1.tt
	# 	if = {
	# 		limit = {
	# 			has_government_attribute = theocratic_monarchy_mechanic
	# 		}
	# 		custom_tooltip = theocratic_direction_tt
	# 		set_heir_flag = theocratic_heir
	# 		change_statists_vs_orangists = -0.15
	# 	}
	# }
	option = {
		name = theocracy.1.h		# An Influential Reformer
		trigger = {
			# NOT = { has_country_flag = KOL_secondogeniture_of_BAV }
			# Anbennar
			OR = {
				religion = the_jadd
				religion = righteous_path
				religion = lefthand_path
			}
			NOT = {
				OR = {
					has_country_modifier = elven_administration
					has_country_modifier = gnomish_administration
					has_country_modifier = dwarven_administration
				}
			}
		}
		set_country_flag = theo_influential_reformer_flag # USED IN DEVOTION.TXT
		if = {
			limit = {
				has_estate = estate_burghers
			}
			add_estate_loyalty = {
				estate = estate_burghers
				loyalty = 10
			}
		}		
		if = {
			limit = {
				has_estate = estate_church
			}
			add_estate_loyalty = {
				estate = estate_church
				loyalty = -10
			}
		}

		
		if = {
			limit = { has_government_attribute = can_see_theocratic_heir_stats }
			if = {
				limit = {
					OR = {
					has_global_modifier_value = {
						which = female_advisor_chance
						value = 1
					}
						# Anbennar - Equal gender religions + rolled female heir
						AND = {
							OR = {
								religion = corinite
								religion = ravelian
								religion = the_thought	#its secular, after all!
								religion = elven_forebears
								religion = regent_court
							}
							has_country_flag = anb_female_heir
						}
						# Anbennar - Female priests by culture or religion
						culture_group = gnollish
						culture_group = harpy
					}
				}
				define_heir = {
					age = 35
					female = yes
				}
			}
			else = {
				define_heir = {
					age = 35
				}
			}
		}
		else = {
			if = {
				limit = {
					OR = {
					has_global_modifier_value = {
						which = female_advisor_chance
						value = 1
					}
						# Anbennar - Equal gender religions + rolled female heir
						AND = {
							OR = {
								religion = corinite
								religion = ravelian
								religion = the_thought	#its secular, after all!
								religion = elven_forebears
								religion = regent_court
							}
							has_country_flag = anb_female_heir
						}
						# Anbennar - Female priests by culture or religion
						culture_group = gnollish
						culture_group = harpy
					}
				}
				define_heir = {
					age = 35
					female = yes
					hidden = yes
				}
			}
			else = {
				define_heir = {
					age = 35
					hidden = yes
				}
			}
		}
		if = { 
			limit = { religion = the_jadd }
			add_fervor = 10
		}
		if = { 
			limit = { 
				OR = {
					religion = righteous_path
					religion = lefthand_path
				}
			}
			add_church_power = 10
		}

		add_prestige = -10
		clr_country_flag = in_theocracy_heir_selection
		custom_tooltip = theocracy.1.tt
		if = {
			limit = {
				has_government_attribute = theocratic_monarchy_mechanic
			}
			custom_tooltip = theocratic_direction_tt
			set_heir_flag = theocratic_heir
			change_statists_vs_orangists = -0.15
		}
	}
	# option = {
	# 	name = theocracy.1.i		# A Noble of House von Wittelsbach

	# 	trigger = {
	# 		has_country_flag = KOL_secondogeniture_of_BAV
	# 	}
	# 	if = {
	# 		limit = { has_government_attribute = can_see_theocratic_heir_stats }
	# 		if = {
	# 			limit = {
	# 				has_global_modifier_value = {
	# 					which = female_advisor_chance
	# 					value = 1
	# 				}
	# 			}
	# 			define_heir = {
	# 				age = 35
	# 				female = yes
	# 				dynasty = event_target:probably_bavaria
	# 				culture = event_target:probably_bavaria
	# 				religion = event_target:probably_bavaria
	# 			}
	# 		}
	# 		else = {
	# 			define_heir = {
	# 				age = 35
	# 				dynasty = event_target:probably_bavaria
	# 				culture = event_target:probably_bavaria
	# 				religion = event_target:probably_bavaria
	# 			}
	# 		}
	# 	}
	# 	else = {
	# 		if = {
	# 			limit = {
	# 				has_global_modifier_value = {
	# 					which = female_advisor_chance
	# 					value = 1
	# 				}
	# 			}
	# 			define_heir = {
	# 				age = 35
	# 				female = yes
	# 				hidden = yes
	# 				dynasty = event_target:probably_bavaria
	# 				culture = event_target:probably_bavaria
	# 				religion = event_target:probably_bavaria
	# 			}
	# 		}
	# 		else = {
	# 			define_heir = {
	# 				age = 35
	# 				hidden = yes
	# 				dynasty = event_target:probably_bavaria
	# 				culture = event_target:probably_bavaria
	# 				religion = event_target:probably_bavaria
	# 			}
	# 		}
	# 	}
	# 	if = {
	# 		limit = {
	# 			has_government_attribute = theocratic_monarchy_mechanic
	# 		}
	# 		custom_tooltip = monarchistic_direction_tt
	# 		set_heir_flag = monarchistic_heir
	# 		change_statists_vs_orangists = 0.15
	# 	}
	# }
	# option = {
	# 	name = theocracy.1.j		# Let the Lottery decide!
	# 	trigger = {
	# 		NOT = { has_country_flag = KOL_secondogeniture_of_BAV }
	# 	}
	# 	random_list = {
	# 		1 = {
	# 			custom_tooltip = theocracy.1.j.a
	# 			set_country_flag = theo_local_noble_flag # USED IN DEVOTION.TXT
	# 			if = {
	# 				limit = {
	# 					has_saved_event_target = noble_province
	# 					NOT = {
	# 						has_global_modifier_value = {
	# 							which = female_advisor_chance
	# 							value = 1
	# 						}
	# 					}
	# 				}
	# 				define_heir = {
	# 					age = 35
	# 					hidden = yes
	# 					culture = event_target:noble_province
	# 				}
	# 			}
	# 			else_if = {
	# 				limit = {
	# 					has_saved_event_target = noble_province
	# 					has_global_modifier_value = {
	# 						which = female_advisor_chance
	# 						value = 1
	# 					}
	# 				}
	# 				define_heir = {
	# 					age = 35
	# 					hidden = yes
	# 					female = yes
	# 					culture = event_target:noble_province
	# 				}
	# 			}
	# 			else_if = {
	# 				limit = {
	# 					has_saved_event_target = noble_province
	# 					has_global_modifier_value = {
	# 						which = female_advisor_chance
	# 						value = 1
	# 					}
	# 				}
	# 				define_heir = {
	# 					age = 35
	# 					hidden = yes
	# 					female = yes
	# 				}
	# 			}
	# 			else = {
	# 				define_heir = {
	# 					age = 35
	# 					hidden = yes
	# 				}
	# 			}
	# 		}
	# 		1 = {
	# 			custom_tooltip = theocracy.1.j.b
	# 			set_country_flag = theo_foreign_noble_flag # USED IN DEVOTION.TXT
	# 			random_neighbor_country = { 
	# 				limit = {
	# 					government = monarchy
	# 					has_regency = no
	# 					religion = ROOT
	# 				}
	# 				ROOT = { 
	# 					if = {
	# 						limit = {
	# 							NOT = {
	# 								has_global_modifier_value = {
	# 									which = female_advisor_chance
	# 									value = 1
	# 								}
	# 							}
	# 						}
	# 						define_heir = { 
	# 							dynasty = PREV 
	# 							age = 35
	# 							culture = PREV
	# 							hidden = yes
	# 						} 
	# 					}
	# 					else = {
	# 						define_heir = { 
	# 							dynasty = PREV 
	# 							age = 35
	# 							culture = PREV
	# 							female = yes
	# 							hidden = yes
	# 						} 
	# 					}
	# 				}
	# 				add_opinion = { who = ROOT modifier = opinion_theocracy_noble }
	# 			}
	# 		}
	# 		1 = {
	# 			custom_tooltip = theocracy.1.j.c
	# 			set_country_flag = theo_merchants_son_flag # USED IN DEVOTION.TXT
	# 			if = {
	# 				limit = {
	# 					has_saved_event_target = burgher_province
	# 					NOT = {
	# 						has_global_modifier_value = {
	# 							which = female_advisor_chance
	# 							value = 1
	# 						}
	# 					}
	# 				}
	# 				define_heir = {
	# 					age = 35
	# 					hidden = yes
	# 					culture = event_target:burgher_province
	# 				}
	# 			}
	# 			else_if = {
	# 				limit = {
	# 					has_saved_event_target = burgher_province
	# 					has_global_modifier_value = {
	# 						which = female_advisor_chance
	# 						value = 1
	# 					}
	# 				}
	# 				define_heir = {
	# 					age = 35
	# 					hidden = yes
	# 					female = yes
	# 					culture = event_target:burgher_province
	# 				}
	# 			}
	# 			else_if = {
	# 				limit = {
	# 					has_global_modifier_value = {
	# 						which = female_advisor_chance
	# 						value = 1
	# 					}
	# 				}
	# 				define_heir = {
	# 					age = 35
	# 					female = yes
	# 					hidden = yes
	# 				}
	# 			}
	# 			else = {
	# 				define_heir = {
	# 					age = 35
	# 					hidden = yes
	# 				}
	# 			}
	# 		}
	# 		1 = {
	# 			custom_tooltip = theocracy.1.j.d
	# 			set_country_flag = theo_talented_theologian_flag # USED IN DEVOTION.TXT
	# 			if = {
	# 				limit = {
	# 					has_saved_event_target = church_province
	# 					NOT = {
	# 						has_global_modifier_value = {
	# 							which = female_advisor_chance
	# 							value = 1
	# 						}
	# 					}
	# 				}
	# 				define_heir = {
	# 					age = 35
	# 					hidden = yes
	# 					culture = event_target:church_province
	# 				}
	# 			}
	# 			else_if = {
	# 				limit = {
	# 					has_saved_event_target = church_province
	# 					has_global_modifier_value = {
	# 						which = female_advisor_chance
	# 						value = 1
	# 					}
	# 				}
	# 				define_heir = {
	# 					age = 35
	# 					hidden = yes
	# 					female = yes
	# 					culture = event_target:church_province
	# 				}
	# 			}
	# 			else_if = {
	# 				limit = {
	# 					has_global_modifier_value = {
	# 						which = female_advisor_chance
	# 						value = 1
	# 					}
	# 				}
	# 				define_heir = {
	# 					age = 35
	# 					female = yes
	# 					hidden = yes
	# 				}
	# 			}
	# 			else = {
	# 				define_heir = {
	# 					age = 35
	# 					hidden = yes
	# 				}
	# 			}
	# 		}
	# 		1 = {
	# 			trigger = {
	# 				NOT = { religion_group = muslim }
	# 			}
	# 			custom_tooltip = theocracy.1.j.e
	# 			set_country_flag = theo_local_preacher_flag # USED IN DEVOTION.TXT
	# 			if = {
	# 				limit = {
	# 					has_saved_event_target = church_province
	# 					NOT = {
	# 						has_global_modifier_value = {
	# 							which = female_advisor_chance
	# 							value = 1
	# 						}
	# 					}
	# 				}
	# 				define_heir = {
	# 					age = 35
	# 					hidden = yes
	# 					culture = event_target:church_province
	# 				}
	# 			}
	# 			else_if = {
	# 				limit = {
	# 					has_saved_event_target = church_province
	# 					has_global_modifier_value = {
	# 						which = female_advisor_chance
	# 						value = 1
	# 					}
	# 				}
	# 				define_heir = {
	# 					age = 35
	# 					hidden = yes
	# 					female = yes
	# 					culture = event_target:church_province
	# 				}
	# 			}
	# 			else_if = {
	# 				limit = {
	# 					has_global_modifier_value = {
	# 						which = female_advisor_chance
	# 						value = 1
	# 					}
	# 				}
	# 				define_heir = {
	# 					age = 35
	# 					female = yes
	# 					hidden = yes
	# 				}
	# 			}
	# 			else = {
	# 				define_heir = {
	# 					age = 35
	# 					hidden = yes
	# 				}
	# 			}
	# 		}
	# 		1 = {
	# 			trigger = {
	# 				religion = catholic
	# 			}
	# 			custom_tooltip = theocracy.1.j.f
	# 			set_country_flag = theo_papal_protege_flag # USED IN DEVOTION.TXT
	# 			if = {
	# 				limit = {
	# 					has_saved_event_target = papal_protoge_country
	# 					NOT = {
	# 						has_global_modifier_value = {
	# 							which = female_advisor_chance
	# 							value = 1
	# 						}
	# 					}
	# 				}
	# 				define_heir = {
	# 					age = 35
	# 					culture = event_target:papal_protoge_country
	# 					hidden = yes
	# 				}
	# 			}
	# 			else_if = {
	# 				limit = {
	# 					has_saved_event_target = papal_protoge_country
	# 					has_global_modifier_value = {
	# 						which = female_advisor_chance
	# 						value = 1
	# 					}
	# 				}
	# 				define_heir = {
	# 					age = 35
	# 					culture = event_target:papal_protoge_country
	# 					female = yes
	# 					hidden = yes
	# 				}
	# 			}
	# 			else_if = {
	# 				limit = {
	# 					has_global_modifier_value = {
	# 						which = female_advisor_chance
	# 						value = 1
	# 					}
	# 				}
	# 				define_heir = {
	# 					age = 35
	# 					female = yes
	# 					hidden = yes
	# 				}
	# 			}
	# 			else = {
	# 				define_heir = {
	# 					age = 35
	# 					hidden = yes
	# 				}
	# 			}
	# 		}
	# 		1 = {
	# 			trigger = {
	# 				religion_group = muslim
	# 			}
	# 			custom_tooltip = theocracy.1.j.g
	# 			set_country_flag = theo_imam_khatib_flag # USED IN DEVOTION.TXT
	# 			if = {
	# 				limit = {
	# 					has_global_modifier_value = {
	# 						which = female_advisor_chance
	# 						value = 1
	# 					}
	# 				}
	# 				define_heir = {
	# 					age = 35
	# 					female = yes
	# 					hidden = yes
	# 				}
	# 			}
	# 			else = {
	# 				define_heir = {
	# 					age = 35
	# 					hidden = yes
	# 				}
	# 			}
	# 		}
	# 		1 = {
	# 			trigger = {
	# 				OR = {
	# 					religion = reformed
	# 					religion = protestant
	# 				}
	# 			}
	# 			custom_tooltip = theocracy.1.j.h
	# 			set_country_flag = theo_influential_reformer_flag # USED IN DEVOTION.TXT
	# 			if = {
	# 				limit = {
	# 					has_global_modifier_value = {
	# 						which = female_advisor_chance
	# 						value = 1
	# 					}
	# 				}
	# 				define_heir = {
	# 					age = 35
	# 					female = yes
	# 					hidden = yes
	# 				}
	# 			}
	# 			else = {
	# 				define_heir = {
	# 					age = 35
	# 					hidden = yes
	# 				}
	# 			}
	# 		}
	# 	}
	# 	add_devotion = 5
	# 	clr_country_flag = in_theocracy_heir_selection
	# 	custom_tooltip = theocracy.1.tt
	# }
	option = { # Anbennar
		name = theocracy.1.i		# A Long lived Heir
		trigger = {
			OR = {
				has_country_modifier = elven_administration
				has_country_modifier = gnomish_administration
				has_country_modifier = dwarven_administration
			}
		}
		if = {
			limit = { has_government_attribute = can_see_theocratic_heir_stats }
			if = {
				limit = { has_country_modifier = elven_administration }
				if = {
					limit = { has_country_flag = anb_female_long_lived_heir }
					anb_define_long_lived_heir = { age = 175 female = yes }
				}
				else = {
					anb_define_long_lived_heir = { age = 175 }
				}
			}
			else_if = {
				limit = { has_country_modifier = gnomish_administration }
				if = {
					limit = { has_country_flag = anb_female_long_lived_heir }
					anb_define_long_lived_heir = { age = 109 female = yes }
				}
				else = {
					anb_define_long_lived_heir = { age = 109 }
				}
			}
			else_if = {
				limit = { has_country_modifier = dwarven_administration }
				if = {
					limit = { has_country_flag = anb_female_long_lived_heir }
					anb_define_long_lived_heir = { age = 88 female = yes }
				}
				else = {
					anb_define_long_lived_heir = { age = 88 }
				}
			}
		}
		else = {
			if = {
				limit = { has_country_modifier = elven_administration }
				if = {
					limit = { has_country_flag = anb_female_long_lived_heir }
					anb_define_long_lived_heir = { age = 175 female = yes hidden = yes }
				}
				else = {
					anb_define_long_lived_heir = { age = 175 hidden = yes }
				}
			}
			else_if = {
				limit = { has_country_modifier = gnomish_administration }
				if = {
					limit = { has_country_flag = anb_female_long_lived_heir }
					anb_define_long_lived_heir = { age = 109 female = yes hidden = yes }
				}
				else = {
					anb_define_long_lived_heir = { age = 109 hidden = yes }
				}
			}
			else_if = {
				limit = { has_country_modifier = dwarven_administration }
				if = {
					limit = { has_country_flag = anb_female_long_lived_heir }
					anb_define_long_lived_heir = { age = 88 female = yes hidden = yes }
				}
				else = {
					anb_define_long_lived_heir = { age = 88 hidden = yes }
				}
			}
		}
		hidden_effect = {
			clr_country_flag = in_theocracy_heir_selection
		}
	}
}

country_event = {
	id = theocracy.2
	title = theocracy.1.t
	desc = theocracy.1.desc

	picture = PRIEST_PHANTOM_eventPicture

	is_triggered_only = yes

	trigger = {		
		has_reform = oracular_order_reform
		has_country_flag = has_caste_estates
		NOT = { has_country_flag = in_theocracy_heir_selection }
		has_government_attribute = heir
	}

	immediate = {
		hidden_effect = {
			set_country_flag = in_theocracy_heir_selection
			if = {
				limit = {
					any_owned_province = {
						OR = {
							culture_group = upper_raheni
							culture_group = middle_raheni
							culture_group = south_raheni
						}
					}
				}
				random_owned_province = {
					limit = {
						OR = {
							culture_group = upper_raheni
							culture_group = middle_raheni
							culture_group = south_raheni
						}
					}
					save_event_target_as = human_oracle_apprentice
				}
			}
			random_list = {
				25 = {  #female harimari
					modifier = {
						factor = 0
						NOT = { has_country_flag = harimari_in_uppercastes }
					}
					set_country_flag = female_harimari_oracle
				}
				25 = { #male harimari
					modifier = {
						factor = 0
						NOT = { has_country_flag = harimari_in_uppercastes }
					}
					set_country_flag = male_harimari_oracle
				}
				25 = {  #female human
					modifier = {
						factor = 0
						NOT = { has_country_flag = human_in_uppercastes }
					}
					set_country_flag = female_human_oracle
				}
				25 = {  #female human
					modifier = {
						factor = 0
						NOT = { has_country_flag = human_in_uppercastes }
					}
					set_country_flag = male_human_oracle
				}
			}
		}
	}

	after = {
		clr_country_flag = female_harimari_oracle
		clr_country_flag = male_harimari_oracle
		clr_country_flag = female_human_oracle
		clr_country_flag = male_human_oracle
	}

	option = {
		name = theocracy.2.a		# An oracle-apprentice is presented
		if = { limit = { has_country_flag = female_harimari_oracle } 
			define_heir = {
				culture = royal_harimari
				max_random_mil = 5
				change_mil = -1
				age = 40
				claim = 100
				female = yes
				hide_skills = yes
			}
			add_estate_loyalty = {
				estate = estate_uppercastes
				loyalty = 10
			}
			add_estate_loyalty = {
				estate = estate_lowercastes
				loyalty = -10
			}
		}
		if = { limit = { has_country_flag = male_harimari_oracle } 
			define_heir = {
				culture = royal_harimari
				max_random_mil = 5
				change_mil = -1
				age = 40
				claim = 100
				hide_skills = yes
			}
			add_estate_loyalty = {
				estate = estate_uppercastes
				loyalty = 10
			}
			add_estate_loyalty = {
				estate = estate_lowercastes
				loyalty = -10
			}
		}
		if = { limit = { has_country_flag = female_human_oracle } 
			if = { limit = { has_saved_event_target = human_oracle_apprentice }
				define_heir = {
					culture = event_target:human_oracle_apprentice
					max_random_mil = 5
					change_mil = -1
					age = 40
					claim = 100
					female = yes
					hide_skills = yes
				}
				event_target:human_oracle_apprentice = {
					if = { limit = { province_with_uppercastes_goods = yes }
						ROOT = {
							add_estate_loyalty = {
								estate = estate_uppercastes
								loyalty = 10
							}
							add_estate_loyalty = {
								estate = estate_lowercastes
								loyalty = -10
							}
						}
					}
					if = { limit = { province_with_middlecastes_goods = yes }
						ROOT = {
							add_estate_loyalty = {
								estate = estate_middlecastes
								loyalty = 10
							}
							add_estate_loyalty = {
								estate = estate_uppercastes
								loyalty = -5
							}
							add_estate_loyalty = {
								estate = estate_lowercastes
								loyalty = -5
							}
						}
					}
					if = { limit = { province_with_lowercastes_goods = yes }
						ROOT = {
							add_estate_loyalty = {
								estate = estate_lowercastes
								loyalty = 10
							}
							add_estate_loyalty = {
								estate = estate_uppercastes
								loyalty = -10
							}
						}
					}
				}
			}
			else = {
				define_heir = {
					culture = muthadhaya
					max_random_mil = 5
					change_mil = -1
					age = 40
					claim = 100
					female = yes
					hide_skills = yes
				}
				add_estate_loyalty = {
					estate = estate_uppercastes
					loyalty = 10
				}
				add_estate_loyalty = {
					estate = estate_lowercastes
					loyalty = -10
				}
			}
		}
		if = { limit = { has_country_flag = male_human_oracle } 
			if = { limit = { has_saved_event_target = human_oracle_apprentice }
				define_heir = {
					culture = event_target:human_oracle_apprentice
					max_random_mil = 5
					change_mil = -1
					age = 40
					claim = 100
					hide_skills = yes
				}
				event_target:human_oracle_apprentice = {
					if = { limit = { province_with_uppercastes_goods = yes }
						ROOT = {
							add_estate_loyalty = {
								estate = estate_uppercastes
								loyalty = 10
							}
							add_estate_loyalty = {
								estate = estate_lowercastes
								loyalty = -10
							}
						}
					}
					if = { limit = { province_with_middlecastes_goods = yes }
						ROOT = {
							add_estate_loyalty = {
								estate = estate_middlecastes
								loyalty = 10
							}
							add_estate_loyalty = {
								estate = estate_uppercastes
								loyalty = -5
							}
							add_estate_loyalty = {
								estate = estate_lowercastes
								loyalty = -5
							}
						}
					}
					if = { limit = { province_with_lowercastes_goods = yes }
						ROOT = {
							add_estate_loyalty = {
								estate = estate_lowercastes
								loyalty = 10
							}
							add_estate_loyalty = {
								estate = estate_uppercastes
								loyalty = -10
							}
						}
					}
				}
			}
			else = {
				define_heir = {
					culture = muthadhaya
					max_random_mil = 5
					change_mil = -1
					age = 40
					claim = 100
					hide_skills = yes
				}
				add_estate_loyalty = {
					estate = estate_uppercastes
					loyalty = 10
				}
				add_estate_loyalty = {
					estate = estate_lowercastes
					loyalty = -10
				}
			}
		}
		set_heir_mage_effect = yes
		clr_country_flag = in_theocracy_heir_selection
	}
}

# Too Much Religious Freedom
country_event = {
	id = theocracy.100
	title = "EVTNAME1090"
	desc = "EVTDESC1090"
	picture = RELIGION_eventPicture

	trigger = {
		NOT = { has_country_flag = religious_restrictions }
		government = theocracy
		any_owned_province = { has_owner_religion = no }
		NOT = { any_owned_province = { has_missionary = yes } }
		NOT = { has_country_modifier = religious_tolerance }
		NOT = { has_country_modifier = religious_intolerance }
		employed_advisor = {
			religion = root
		}
		NOT = { has_reform = papacy_reform }
	}

	mean_time_to_happen = {
		months = 180

		modifier = {
			factor = 0.9
			is_defender_of_faith = yes
		}
		modifier = {
			factor = 0.9
			has_idea = divine_supremacy
		}
		modifier = {
			factor = 0.9
			advisor = theologian
		}
		modifier = {
			factor = 0.9
			theologian = 3
		}
	}

	option = {
		name = "EVTOPTA1090"		# Take his advice under consideration
		ai_chance = { factor = 55 }
		if = {
			limit = {
				has_estate = estate_church
				has_estate = estate_dhimmi
			}
			add_estate_loyalty = {
				estate = estate_church
				loyalty = 10
			}
		}
		if = {
			limit = {
				has_estate = estate_dhimmi
			}
			add_estate_loyalty = {
				estate = estate_dhimmi
				loyalty = -10
			}
		}
		set_country_flag = religious_restrictions
		add_country_modifier = {
			name = "religious_restriction"
			duration = 730
		}
	}
	option = {
		name = "EVTOPTB1090"		# It's not of any consequence
		ai_chance = { factor = 45 }
		set_country_flag = religious_restrictions
		if = {
			limit = {
				has_estate = estate_church
				has_estate = estate_dhimmi
			}
			add_estate_loyalty = {
				estate = estate_church
				loyalty = -10
			}
		}
		if = {
			limit = {
				has_estate = estate_dhimmi
			}
			add_estate_loyalty = {
				estate = estate_dhimmi
				loyalty = 10
			}
		}
		random = {
			chance = 40
			random_owned_province = {
				limit = { has_owner_religion = no }
				create_revolt = 1
			}
		}				
	}
}

# Problematic Relations
country_event = {
	id =  theocracy.101
	title = "EVTNAME1091"
	desc = "EVTDESC1091"
	picture = DIPLOMACY_eventPicture

	trigger = {
		NOT = { has_country_flag = problematic_relations }
		government = theocracy
		any_neighbor_country = {
			NOT = { has_opinion = { who = ROOT value = -50 } }
			NOT = { religion = ROOT }
		}
	}

	mean_time_to_happen = {
		months = 180

		modifier = {
			factor = 0.9
			is_defender_of_faith = yes
		}
		modifier = {
			factor = 0.9
			has_idea = divine_supremacy
		}
		modifier = {
			factor = 0.9
			advisor = theologian
		}
		modifier = {
			factor = 0.9
			theologian = 3
		}
		modifier = {
			factor = 0.9
			mil= 7
		}
		modifier = {
			factor = 0.9
			mil= 8
		}
		modifier = {
			factor = 0.9
			mil= 9
		}
		modifier = {
			factor = 1.2
			NOT = { mil= 4 }
		}
	}
	
	option = {
		name = "EVTOPTA1091" # Make your opinion clear to them
		ai_chance = { factor = 45 }
		set_country_flag = problematic_relations
		random_country = {
			limit = {
				is_neighbor_of = ROOT
				NOT = { religion = ROOT }
				NOT = { has_opinion = { who = ROOT value = -50 } }
			}
			add_opinion = { who = ROOT modifier = opinion_forceful_conversion }
		}	
		add_papal_influence = -10
	}
	option = {
		name = "EVTOPTB1091" # Make preparations for a future attack
		ai_chance = { factor = 55 }
		set_country_flag = problematic_relations
		add_army_tradition = 10
		add_treasury = -40
	}
}
